*** Life<FredkinCell> 38x21 ***

Generation = 0, Population = 318.
0-00-0-----0--0----0-
000----------00-00-00
-00000-0-00000-0-0---
--------00------0-000
-0---00---00-0-----0-
-000--00--000--0-000-
0-0------------0---00
0-0---0--0-0----0-00-
0--0000--00-0--0---0-
--00---0------000--0-
0-0----0---0000-0-0--
--00-0--0-0------00--
0---00-00-----0-0----
0-0--0-00--00--0-000-
000--0-0----0-----0--
--00-----00---00--00-
--00-0---------0-----
---00000-----00-00000
--000------000-00-000
00--0000---00--0-0--0
0000-0--0---------0--
-000--00--------0----
--0-----00----000-0--
00----0---0---0--00--
0-----00--00--0--0---
-0--0---00-0-00---00-
----0---000--0000----
-0-0--00-00-0--00---0
---0--0----------0---
0-000-----0--00-00000
-00--000---00--0-00-0
--0-00--0-0-0-0--00-0
0---0-0------0000----
--00-0--00-0-----0000
-0----000-0----000-0-
00--00--0-----0---0-0
-0----000-0---0000--0
------00----0---0-00-

Generation = 2, Population = 398.
2-02-0----1---211--2-
--211---01-00-0--00--
---00---1---00---2-0-
0--1--------10-0-12-2
12-1-2----0----1---00
-022--0-1-022-120--2-
2100-----1-01--2--1-2
-02---21121-00------0
21-00000--2----21-001
-1-0010-1-11000--102-
--01011200-2-00-2-200
-1--1-11--00--00-2010
21-0---0-11111----0--
--210-0201------12--1
0--0-2--011----0----0
-020-001----1-201----
-----------0---201-01
0----2--1-0-------2-0
--2-210-0010----0-0--
001---020-1--0-2-----
-020-2110101100-1--1-
00-010-211000--0----0
112000--2---01------0
0-----2010-0-1000-0-0
2----1----0----11-11-
0-1-------0--02-1-2--
0-00----0--0-0-2011--
1-0-0--21---00--0----
--0---20-100111112010
--02---1-1-0---12-20-
---010-20-1--0----21-
--20-0-0-001-1-10-00-
0-0-200---1--220-1-10
--22101--2-011-01-02-
02-1-12021--0-02-0021
2-11-21-0100----010-2
-2-010-200---10-----2
01----00-01-0-1--122-

Generation = 4, Population = 389.
20-2---0--1-1--1-00--
-22110-1-3-2--2--021-
-----2-----0----12-00
2-1-010--0-1-002-----
----02-0-1-00--1-1-0-
--4--0-11-0----222---
-100-00--300--0--1---
1-211-23-4--021-10--0
-----2--10-----4---2-
-3---1-13---0--1--0-1
0123031-2202--2-20-00
-3-23-13-10201021---0
-1-22-1-2--31-----200
00-121-423--1-00341--
--2--41203-1---21--1-
-220000-0---10-------
1-120-1--0-0--0-2-12-
--1--402-----01---4--
00---3012--2---0002--
-23-1224--1--2---01--
---0-----3033--0-1--0
0-0-----132-2---10---
3-22200-22--01------0
01-1--4--220-1--002-2
211011-21--0-011-1---
------0-11--1--------
00--1--0--0-10--0-11-
3--201-2--1--20---01-
--0-1------2---312---
-1-2-1-1130-0-112--20
012210--2-3----0-24-1
11-0-0121----1212-0-1
00-02--0-1310-221103-
-024-0-0-41--1--3004-
---11--0--01212--00--
4---2-10-1--0----3-1-
1-10-0022-1---0-21-0-
21--1---103-0--123---

Generation = 6, Population = 403.
--1--1-210-1-12--00--
-2---0---3--0-2--2-11
11--12-1--10-100-21-2
-0--0-2---012-0--131-
-2---4---3-0---11---1
0---0-1-3024-02-2-140
33--10-103--20-311-1-
--2---2524-------021-
4--11-0-1-30-1--2--22
050--123-122-2030-0--
---52-1---2-104-2242-
031---35-12---22-----
3-0--2-0422--2-00-2-0
204--1-42-1-302-5412-
-141-63--3212---1-0-2
---22223-2-1323-10---
1-3--1100--0012----42
0----4---110---0-04-1
-----5-14---2--------
--5-----1-31-21--2112
--4003--0-0--12-2--2-
2--2-22-13--2--03-101
3-242--0-41-01-0--2--
-1-11160-22-110--2-0-
--12130-11-21----32-1
-0---0--13------21-20
-2----02-0201014-11-1
5----3--2130--2-00-1-
1--0313112--232-3-1-2
----1----302-1-1---4-
0-2212--21---21004---
33--0-14-103------0-3
--12-10---5-232---03-
0--6-0-------3-1-----
----12---30-4343--041
--33--1--111201--31--
-43-1-2--1-103-12--2-
23-0--2---3001--433--

Generation = 8, Population = 399.
-014-30-10--23-2---2-
-4--1-1--------02---1
332--21----0-3022--04
2022-1--11-14-230-534
--------0-1-1---1201-
225-----3--430-2-4---
-5-11-0-0-1----5--1--
112-2-2--411----30---
---33-003--003---01-4
052--3--5-2--------43
-1-7---4-42----0-2--2
--13-1352---22-22--3-
-1-4--3-6-442--00--10
22-1--24231-32-27-143
01---83------103--22-
---22-23-423--30--0-0
-0---3---10-2322-2---
2---2402--10---0-2--3
2---47---0132-1-0---1
1--03----0--12--0-1--
-2-----2-4-3-12-41---
4------3-3--41--3-1-3
-3--2--23--0---2--41-
1-031----42-3-212-30-
----330-13---0-225423
12-11--01-1-214043-42
0-2121----42-0--0-31-
7004051--1----2---011
--1--331-413---45-1-2
-21-13---5--1-2331340
2242-4-343--121--64-2
------16-12-12--3-22-
-13--1-00--24-431-05-
----30-----13-03----2
-31-322-43-2-3--1----
5-----32-3-3201115133
1-3111243---051----24
---011----52213---530

Generation = 10, Population = 417.
-0-6-50--2-245-42---0
04--101--5-410-22333-
-3-1-2123-22252--41-6
22---3--13---2--22--4
1-02050---101013-4---
--7--0--31365--4--3-0
-50--121---24----2-2-
---2-026-63---1--03-1
-21---00-0-0-51-30-36
2742-32--3-2-4-4--165
---94---26233---3---4
043--3--2--22---2----
33--4--1--4-441--133-
24-3-1444-12--44--143
0-610+54-3--3-2511-2-
--34-22514--34--2--2-
-0--1-3-21-14-44-41-2
---224----30-22-1462-
2--1-70350--21-2----3
32--3--5-0-312---4--4
12-2----041--3-0----1
4----2-3-5---10-5--2-
-3344-125-10--041-61-
---3-281-4-1-341-4-23
23--53-4------14---2-
1--1-20-153241-2---6-
-321-11--14-2-352-333
7006--13-35002---1---
31-155-3261--------22
-2-4-502---3--255--42
--6-2---4-4-------6-4
-42-11-8--453--1---23
---3-3-----2--4-12---
0-28--21-5-33--34-1--
-5313-2-6302--6-3---2
7-3534-21---40-1--1--
--533346----2532-31-6
430-3---2--2-33-4-7--

Generation = 12, Population = 367.
-2--15-4------2-2-2-0
-6--303---1--2---555-
4-2---32-044-5--46118
-2--1---1----23-44---
-40--52205-2-2--261-2
-3--1--1-15671---6---
-7-22---14--412-34--4
2---2-2-265222-1--5--
521-3-2--04-051------
4--2-524--421-24-2--7
12--65262-2--1--5-6--
----5-5-4-4---3---1--
--04---3-4-----1-----
--653----414-2----14-
22-1---6----5---3-4-2
---43--7-6---6--4-1-0
---4---2-1-143-62-1-2
4---4--4-3---22-3-8--
-04-----50252--2----5
----333--0-5-42--4-34
---20-2424-3--4053-2-
-22-2-4--7------7124-
453-60-275---2----83-
-1--2-+3--43--43--545
2---7-1-1--3-2--3---3
---33-0--75--------62
13-3-1--13-3-157----5
7-28----35------0--21
3--3554---15--3564222
04-6-50236--324573-4-
-48----4-4-23-2--7624
-6--1-28124--------4-
-----500---265-4---6-
0-2+---3-----4--61-5-
17-1344--50-5-63--0--
------4-1--34---25--3
2---3--6----25--35336
-3--51-0-17--3--4-9-1

*** Life<FredkinCell> 28x14 ***

Generation = 0, Population = 113.
------0--00--0
---0---0------
0-00----------
00-0-------0--
-------00-0---
-0--0-000--0--
00---------0--
-----0-0--0---
00---00--00--0
-------0------
-----00-------
0----00-0000-0
-----0---0----
00----0---0---
-0-00--00----0
--------00-00-
0-00-----0----
0------0----0-
----0-000--0--
--------0-----
---0-----00-00
----0------00-
-0000--0-----0
------00-----0
----0-00-00-00
--0-0--000--0-
--0-------0--0
----0-000-0---

Generation = 4, Population = 202.
2--3-02202-1-1
-0--1-000-----
-32-1--1-210-2
-11-1--1--1--2
10-3000----12-
223-01-22-0410
12-00-30-----1
-----2--1-10-0
----104112-3-0
3--11--21-0---
10101--01110-3
-3----1-12----
--11--3--10---
21--300---2-1-
22-2-----0-11-
0---1-111024-2
2-221-03--0-1-
4030--0-1-2---
1--10--1--0121
----3-1011-1-0
1-1212--0143--
--1-1--303--11
-22111---211-4
--112-14-0----
0-1--22-------
---023-02-3-23
21-01--2-241--
1--1-----121-0

Generation = 8, Population = 189.
211---44-4---2
-4-52-1-0----2
---322-1---1--
-2-4-----351-3
---7-4---10-31
425--222--1--0
-2--02-0-10---
-32-----33510-
---2---226-7--
5--2--------21
-2321-002--4-3
051--430-41-01
---2---211-40-
213--1-1-04-5-
----2----2----
03-1311-316422
2--4-2230-1-1-
--5---2-11--20
---1-11--02---
----41-1-1-132
-1121--2416---
1022---5-7--2-
-6------03-336
3-3-23-----1-1
-233-43-1--1--
-14---1-6-726-
-5-210262--1-2
----1---2-4301

Generation = 12, Population = 201.
65-4--66---12-
-5-5-----4-11-
-624463-2542--
--3---1-3-7-1-
2-29-8-2----7-
-3-0-63-6-2-4-
2251-3---3-3--
-561552-3--51-
---62--44-1-22
--2-2-455--3-1
--743-1262--04
--1--55-2-3-2-
2--43-3-330-1-
----4-0----274
322-3--2-443--
-51-5---------
--451-3521--3-
7-561-3-12-0-2
--0-111302323-
4-5--343611---
1-541---5-8--5
3-424-17370-6-
----------3--6
-04-431--111-3
04-5-4423---33
---4-4---1-3--
2-2---48437--3
-1---1-163670-

Generation = 16, Population = 203.
8--8-68+-7---4
-5---34--8151-
----47513-6---
22-5-13---+23-
--29---4-22-74
-4-2-8----2-82
447-2382-53713
--7-7-4--3+--3
1-56-5--5-1---
-44--155-0-33-
--+---5--4---4
2933367--5522-
3-7--6-3-4----
--53------6296
-42-59-22-6--3
15---23543--5-
---734-7-3423-
7-67-132----32
6--2-3----5--2
52-1--6-----4-
13--24-56--425
5-446-285-23--
4---480--3--5+
40----263-5-1-
2-3-36-2-----3
1-787-2--3-3--
--46-15+6-7-24
-32----37489-2

Generation = 20, Population = 189.
-65---++283-2-
--36---31-2535
7-----7-4+----
--6--1--6---5-
2-4+-91---6-8-
--6--+5-8-499-
--82-5--45--25
----96--6-+8-4
-59+-7-5-73--2
66-2-177+25-5-
--+--1--6-2-14
3+3--7-427---1
-4-9-7735---23
-5-7----0---9-
6-3-7-0-487-2-
--2293--8----5
5-68565-3----2
-5-9------6--4
7---2---05765-
-2--4--663--6-
-----6-5-5966-
---482-+773---
-+6-49453-43-+
627--8-8-3--54
2-56-+53---543
36-9-6--83+--5
-9-------4----
3-2-----8-9+--

*** Life<FredkinCell> 44x48 ***

Generation = 0, Population = 774.
--0-00----00-00-0-0---0--0--0---000-------0-000-
--00-0----0--00-0--0-0----00-00------0------0---
0---00-0--0--0-0-0--0-----00-0-0-000-0-0-0--0---
0-0-0-00-0--0-0-00--00-0-0-0------0-0----0000000
0-----0----00-0-000-0-00--0---000--0-0---00-0--0
-00-00--0---0----0-0----00----0--0---0--00-0-000
---0--0----0--000000--0000-0--00--000-0-0-----0-
-----0-------0------00--0-00-0----0-----000---0-
-0----00-0----0----0---0000--00--0-0-0-0--00-0-0
-----0-0--0-----0------0-0--0---0-------0---0---
0-0-0000---0-------00000----00------0--00--00-0-
0---00----0------00-00---0---0--00-0-0----0--0--
-0------00-0-00---0---0------0-------0----00----
-----0000-0--000--0-0-0---00----00--0--0-0000---
-0---00-00--0----0---0--0-----0-0-----0--0-00000
00----00-----00---0-00-00----0-0--00-----000--00
00---0-----0-00-----0-00-0--0--0---0--------0---
-------0------0----0-00-----0-0---00----00----00
000--0-0-000-00--0--00-0--00-----0----------00--
--0---00-0-00--00000000---0-----00-0------00-0-0
-00--0-00---0----0--0-----0-000----00--0---00--0
0------0--00----000--00-0000-0--0-0--0---000----
----0-0--0---0-0-00-0--000---0---00---00---0----
-0---0----0----0-00-0-0-------0-0--0-----0------
0-00-0-------0-0------0-----0--0-0---0----0-----
--0------0----0------000-0----0-00----0-00-----0
00-----0-0-0-----00--0--00---0--00-0--00--0-00--
---000--0---0--0000-0--000-0----0------00-0----0
0------0-0--0-0-0-0--0---0-0000---0--000--000---
-00---00-0--0-0-0---0-0----0----0--0000--0----0-
0---00-0-00-0--0------0-------000-0--0---0-00--0
0-00-------0-0-00--0-0--000---------0-----0-0000
---0----------0-00000-0---00---0-0--------------
00-0-0000-0----0-00-0-000---------0-0000--00-0--
0-0000--0--000000---0-000--0-00000---00-00----0-
00--0--0---000--0-0-0----000--0-00--00-0---0--00
00--0000-000-0-00---0----------0-00-0--000-0--0-
--00000--0-----0---0--------0------0-0-00----0--
-000-00--0--0-------0---0----00-0-0----0--0-00-0
-00--0-00---0---------0-----00-0--------00--0--0
-0--0-0--00--0-------0--00-0--0------0--0---000-
-----0-0---00------000--0-0-------00--00--0-----
--0--0--00-0-0----0----0-----0-------0---0--0-0-
----0----0----0---0-0-0--00-00000----0---0-----0

Generation = 4, Population = 1078.
-1--413-0--2-01-420-20-13-1120---14-03-001------
1--40--12----1-1100-310-00-1-220-12--------30200
11---1--3-2---100----00--1--113204-41--0-1020---
---24-2----023---211-1-1-02---103-4--1-11--0--0-
-02--22-13022-200-2-4112--2--1-042--3-3-12--2--0
--211411-3--2-033--200---0-1-10-210-22-00-120-1-
------1---0-1-40-2-0-0-0--32-214322--300-1-11---
-32--000-12-1-1---1-1-1-1--204-30-20-----201-222
3-31--1-20-02--10130-31--1-202--2-1--10--1-11011
--000--2-220-0-0-30--31--21-211-----01-1--1--001
----1210--0-1-00-3---10--10----0112----2001--12-
--0-01-100---33-010---030-100------012011--0--0-
02--301---201-02-0-32---01--1410-0---23--011011-
-212111---1-1-2--0---14-302-11-0--3-1-02-2-121--
-11---2-1---000-1--0112--1-112---0---1---2---1--
2130--02--2-0-10--0-1---000-2032-1-0------0-----
----1----21111232-11100-----20121---02--1-1-1--2
0--1-20-1-0--30-1---20-1-----22001----2---12--2-
4011-2-20-10320-2--00-1-1--2---1021--0-21---110-
--10----3---11-4--200-4--12-1---4-2-100--34--2-2
022-011-20--2100----1320--0---21--1--0----3-20-4
---11-0--2-213-0-103-----22-32-301200101-1---1-1
3-------00-1-1--312---12--0-140-120--1-----2---0
--011--12----0--0-0----2-0001--1-11111--3--1----
----043001-0--1-1--002--20---1--023-0----10---11
-22--1---2-1001---023---0-0011----302-4-----0-0-
4110011---100110--0----112---20-1-103---0-202-1-
--1414-0-00---1-142210-1-221-2112---0-1--20----1
2--03---0-001--3---3-2012--201200--1-0-012-0--33
-----0-2-0001210-31--3-1-31-1-2-----------12--21
2-----140---2--2-0-10240-3--1--0-11-1-0---110114
-020211101--11-0-0-2-21-212-20--11--002-20---000
-1--1113---3----0-1-----000-3----0-21-1-200-3-3-
-1--1-2--02--101--01-1--1-1---3--1202-2--041-0--
2--12--0---1-----0--2-21-1---------0-1-0--212-2-
--0-0---21---21-02-00-11-2---24-2223-2-2-------4
10-----000--1--0--1--10--011-0-111--4032--04---2
1-04-1-0-1--11---13--22-0-1----310---0-2----01-1
--001-022-1-21030-2---0--320---00-011-0--0--1102
-1-212111----10---0---0-001-22-20--0-3-002--0-0-
--2-20-30--2--121----1-3-41-02---------0-0330--1
-33--20000-1--10-012---02-0-211-1-1-----0010-000
2--312-02--1--02-0112-0101-0--2-1-1----03------0
101--0----10-10-1--01-0-3240--202---12121-300--0

*** Life<FredkinCell> 13x47 ***

Generation = 0, Population = 138.
-----0-------0---------0---00-0--0-0--00--000--
000----00--0-----00-----0000-------------0--00-
---0-0--------0--0-----0-----0--0----00-0-0----
---0-0-----00----0------0--00----0-0-0--------0
0---00------------0-------0--0----0-----0---00-
-------------0-------------0--0-0------0------0
-00-0-00-0-----0---0-----00----------0---------
-------0-0--0-0--0------0----0--0-0-0-------0--
-0-00--000---------000----------------0-000-0--
------------------0---00--------00------0-0----
---0------00---------0--0------0-----0-------0-
---0--------0-0-------0-0-0----0-0-0-0---------
0------0-----------0--------0--0--000--0--0----

Generation = 2, Population = 271.
-------1---1-010-1---0----00---1----11-21-20-00
--2-0-1---1011-010-10-01-00--1---1-1-1-1--1----
11-202-1----11-11-00-0-0-11-00-1-0--1---0--111-
1-12-0--0012--10-200--0-0-0--1-000---2---0---0-
010-20---0----0000-10--0110100-0----0---0-01--1
---0-1-1-1----11---------1-0--0--1-00----0-----
-22---2----0-1----101--00-2001----10--11-00--0-
-----0-0-01100001-10---1--1----100--0-101------
----2-1--------0-10---01100----0----1-00---0210
---0---1-1------01---12-000--00-22--011-2-2----
0--210------00-----01010--1-00-2-00-1-1-10-01--
-0---0----1-0-0-0-0-0--0--0-10-000---2-10-1----
--01-0-0-000-----0-0----1-1-011-1--2-010110-00-

Generation = 4, Population = 261.
00-01---------1---11----0--2-1----00----3--202-
---1-11-1---3-12-02-2--1102-03-01----3-31---11-
--0-221---0----3--0--0-2--3---0--010-1-0-0-3--1
-0-----02---101202--00-0----2----01-12-0-00----
0-00-2-1-----12----121-2-3-30-1----02-01---3211
101----103-1----------0-13-01--011100---02-1-1-
-440-12-0--2-310-1-2--1-2-----0111----1-102--0-
---0----0-1---0-313-000--0101-1102--2-3--------
00-1-1--0--111-20101---3322-01-2--01-120-------
-------------10---01--4---2-002-4----131----0--
001-1----1----0--1--3-----10---4-22-31-1--0--1-
---1----003-----01--2------03-1-2-0-0--1-0--0--
-023---0022----0---00--0---0--3------012-100221

Generation = 6, Population = 295.
--0-------0-1-30-2-30-0020----121---3-125--42--
---3111---------2-42----30---3-2---11-0---21--0
12-3441-----1---1122--------1102-03---101--311-
102----0-----2340-1-02---1-1-20110-0--100------
--0----1110-01201----1-43--32011-0-041-1----2-3
-23-020----31--2--0-1---1-0---1---120-0------1-
0-6--34--10---32-322--1----10---13-1-131--40-21
1-0--011-113-2-1--30--0-1----11-2-0--1-0-1-011-
-2032--12----1-42-0----5-44121-4--23212--------
---------2-10-00-20---4--1-1----42-1135-4-3-0-0
2-33110--31--1-1-3-15-3---10-21-04-031313-0--11
-0---0000-3110-0--1------0----3-2---2----2302-1
-2----1--4-20010-112--10--3-03523022-21--100423

Generation = 8, Population = 277.
-200-11-0----0-----3--2---12--3---1--1--7-----2
2--3331-1----2-2-1----21-030--0-230314-411---10
12--661--00--1-3--2---0--14---2-1------------3-
-2--11---2---25-24----1---0-34-11--21-1-01-1-21
2202-3011-2-034--102-3-6----22-1---2-31300----3
145--4-12--5-----021-02--301---0---2-----2--03-
-56-0----1041454--22---------202----1-5----014-
-1-00-3--1--0-2131--21---0--2--243-12---2---1--
142------112---643---1-54----1-41-254120---2---
110----20-13--22-2----61---1--40-21-------5--12
-15-13-003-2-32-050-71-------4---------1----33-
----0000-0------2-3-3-02-0--5-3--1-244-2-2-2201
143--1-114-2------341--2-03-23-2----24-33-2262-

Generation = 10, Population = 319.
-4003111-1-2-----32321-----2-3--3-3143229-2-32-
4--3---13031--1-3--42143--302-0-23-3--0-3-4221-
----8-12--2--1152-2--20---6-31-41--1--32-1-4---
-2-21--2---324564---12-0--22341-122------11--2-
22---5-3-2--2----3-23-06---3--1-0--2----222---5
--701--1--1-2---10--1-4---0310---2---111-41203-
1-6-24----0634--0-2220--3--3-4-4-5----5---6--4-
-1020-321--5242-5140-122-0-1-224-52--1---20-3--
--2341---132--1-6-110-15-443-1--1--76---0--2-2-
-12-1-120-1-2-2-1-011-810---1-6-54-224-2-1---1-
2-5-1--22---05220702-35011210--51-31-35-42-1353
11-30002-04----142---1--120-7---3-----0-----2-3
3-5--33---22--1---34112-1----57--1232--3--4-823

Generation = 12, Population = 303.
1--2-11-231---5---25-1-1-01-234-515343-29-4--24
4-255-3-3-5-4--4-1-4-16----22-03---3140---444-1
2--4-6---0--1117-1-2-40---605-36-----23-23-61-1
14-41-0-441---784-----2-2-24--1-3-4-22---3--1--
------03-22-2----51-------23-33---02-53-42---35
14--1----43-2----02--------3-0212---1-----1---0
176---5-12---465--2440-0---3-41--5-2-----26-263
2-0---5----7462----2---2--31242-65-1--3-2-----0
15454-21-35--2-7----0----44---153-27----0---342
---2----0-354223-321--+1-322-26---2--4----6---3
4--4-31----405--0-2--372134-2-1--5-1-353-203-73
3-0----22242-2-162-03--2---2--4-5113-4-2234-20-
--53033-14242--01-5413--30---7934-23-5-3-------

Generation = 14, Population = 318.
360443--2--422-1--453-413-34-3-47-55--4-+---344
4--5735-517-62--4---3364-1-24------3--05--4-42-
-20----31-4--1--43-40-----605-5----3---34-1633-
1-2-33236415-57+65-212---14-4-1-3---44----2-3-1
-2143-052440--511514--1645252--------------3255
147-1-03-6---02-----2-5124-3-2214-3412---5--1--
39--4-703-0------4-6--22-1--2--5-7-4--71146-4--
22032-----2-4---61-4--4421-3-6-5-5-1--3-4-1-3-0
--6--2234--3-21-75320--6-46-3-3---2-7--2-------
-3---1-3--376--325-31--1--2-3--0--44466-628-12-
--661----42-2--4------9-1541-51727--35-36---5--
--252124---4-4-1-43----4-3028--1-3--542-254-4--
-5-303--1-4641-01----543------+-43-33-25--53-33

*** Life<FredkinCell> 16x20 ***

Generation = 0, Population = 107.
0--0---00-00--------
-----0-----0-0------
------0-------00---0
--00---0------0-----
-00---------0-0000--
-00000---0-00----0--
-0---000--------0-0-
--0---00--0-0-------
----00---00---0-----
----00---0---000---0
0-0-------0-0-0000--
00----0-----0----000
0---000--00---0---0-
-0-0--0000--000-0-00
-----0-0--0-0------0
0----00-00---000000-

Generation = 1, Population = 149.
-00-00011-1-00------
0--00--00--1---0---0
--00-------0---10-0-
---10---0---00-000-0
0-1000-0-0--1-----0-
011----00--1-00001--
0100--1-0000---0-0-0
---000--0-1--00-0-0-
--00---00--00-1----0
0-00--0-010--1---00-
10-0000-----10-1----
11--0-10-0-010-0--11
10--1-1---10--100--0
-----0-1--00--------
00-001-100--10-0-001
-0--0-1011---1----1-

Generation = 2, Population = 172.
-110---2---01100---0
--0------0-2-001----
00110--0--01-002-0-0
0-02---------1--11--
10-111-1--0-200--0--
122000---0-201-1---0
-21----01-1-0-01-10-
0001-1---020-1-0-0-0
00-1-0-11-011-20000-
10-1--10--1-02-0011-
2-0-1-1-0-0--1-200-0
220--021--0-2-0--02-
--002020---1--2110-1
---00102-----00-000-
1--11-021---2----112
-10-10212-0--200--2-

Generation = 3, Population = 153.
02210-0-101--21-0-0-
00-00---0-0-01-200--
---2100-0-1--11-01--
---300-----0--0-2200
2--22---0--0--1--100
--311-0----3---20---
03200-112-2-1-12--10
--1--20-01------0---
110--10-2012--3-1---
2-02----01-0--01----
--10-0-----0120-11--
--1-0----010-0100131
1--13--10-----3-21--
0--1-2-3---0-1-0---0
----2-1--000-0-0---3
-210--32---0-3-10-3-

Generation = 4, Population = 153.
-3-2-------0--2010-0
--011--0-0--12-3----
0013-11-1-2----212-0
0-04-------10-----1-
-0-33-01-00-202-0-1-
----2-1----4--0-1---
1--1-02--0-0--2-0121
-0----101-200---1000
--1-0---3---104020--
301-0-10--1---1201--
202-1-1-0--1-31----0
222-1--1-1--2------2
20----2-1-1--04-----
1002--04-0-1-201-001
1001-12211-1-------4
03-1-0-321-1-4--1---

Generation = 5, Population = 150.
0-23---2-01---31-1--
00--2---0---230-0---
---41220-0---11--30-
1--5-0-00002--00--2-
--1----2-11-----1-20
12-130-----5-------0
--2-013---2--03-123-
---10----131----2-1-
112-11-140----51-1-0
-12----101--02231-10
3-3---2-----14--1101
3---202------0----33
3101303----------10-
2-1-0-1--102--12-1--
2-12--3-22--2-0001-5
--12-13-3--2--01-0-0

Generation = 6, Population = 165.
1334--0-11201--21-0-
-1-13-00-0023413-00-
-01-23---1-1--2--4-0
-0-60101--130--1----
---33-030--0--2-----
23-24--0-00-010--101
1---1241--30114-----
00121210--4201--3-2-
22-1-2--51-21------1
3-3200--1-10-334---1
40401-3-00-1-5-----2
-----131-----11-014-
4-1--141-011-0412---
-0--12-4---3-2--0--1
3-2--------1--1--2-6
03---2--4-0--4--11-1

Generation = 7, Population = 168.
24---0122231----2110
-----0-1011-4-2-0---
012-3-2-12--0-32150-
110--21---2-110-22-0
2-1441--1-112-3--120
-4--5-1-01---21212-2
-32123522-41---212-1
11-32-2--------0----
3--------2-3-0512--2
----1--1--210--51-1-
--51--40-102--1211-3
-2-0------1-22-0--5-
-1-1-252-1---15-3-01
2-122-1501---31-1-02
4--22--22--220-003--
-4--1-33----0--12--2

Generation = 8, Population = 163.
353-0--33342--32---1
--0--1-----25-33-0-0
-2----30--21-14--61-
221-0--1--332-11-3-1
3---5-0321------12-1
-532--20120--323230-
-4-2-----05211-32--2
--1--23-114--1--30--
4--1--015-1411---1--
3-3--0-211--1-3621-1
--6--05--2--1-2-22--
332-21---1203--10-63
-21-336-12---2-14-1-
302--2--1-03-4-2-1--
5---3133--033-1--4--
--1-2-4-----1-0---3-

Generation = 9, Population = 167.
4-----14-----2--2112
0111----0113644--101
-32-3-4-12-2-2521720
-32-121----431-22-22
40--6---3-1120-0-322
-----0-12------4-412
15-323-221---24-32--
1--323-0-2520-0---20
522-12-26---2--12-02
4-4-11--2----3--32--
---1-16-------3-3---
443--23--2------11-4
432---7---1--3-2-12-
-1-22-1-21--051312--
6--2-244-2-4-02-05--
04--325---0-2-11---2

Generation = 10, Population = 159.
5-34-025-342-3-2322-
-222-----2-4----02-2
-434435---2--36328-1
-4--2--1-0-54213--33
5--4710-4-223---1--3
---251--3-050--5252-
-6--34-33--2-3-34-3-
-1---4-------11-----
6--123----1-3--2-1--
5152-2--31------43-1
-06-12-002-------2-3
-5--2-410----21---6-
----3--212-1-453-23-
322-32-53---1-2423--
7023---5230---3---16
-51-43-----2-4-2-13-

Generation = 11, Population = 162.
-5---1-6-------3433-
---3---103-56-431303
05455-6--2-2--743-2-
-5-6-21-0---532-2-44
--1--21351--4-302-24
253--2--------2-----
172--5-4-1-3144--242
-2132-301-52--20302-
72---40-6-------2202
-26---1-----1---54-2
-1-1--6---0--53--304
46-0-25-12-03----17-
4-21---3-3--0---4--1
-3-2-3-6410--535--02
---43-4-3-1-3-4005-7
---2545341----1--2--

Generation = 12, Population = 164.
5-340--7-3-21---54--
0--4-1------7----4-4
16--637-13-30-8548-1
-6-72-2110----3---5-
502-732-6222504-----
-6425---3--5----25--
--3--6553-5---5---53
132-3--1-26-----4-30
8321-51272143-5-3-1-
-37----23-21--36-5--
--621--00---1642-41-
--3--3-12-21--1----4
5-323--4----1-5---32
--2-3-1-52-3164-2-13
-025--5---2--051--18
--1-6-6-52--242--332

Generation = 13, Population = 165.
6-451-2----3-3-36-32
---5-2-10--5-4431--5
--45-4-0---4------22
2-283-3--1------2---
6---8--373-3---0232-
-----2----06-3-536-2
17--37-6-16--4-3----
-433-43---7-0--05-4-
---226--83-54-62422-
--8212-341--1-4-561-
--7-2-6112-22-----2-
46-02--2--323----175
--4----5131124-342-3
3---4-2663042755--24
71-632-5-3--31-2--29
--22--7-63-235--244-

Generation = 14, Population = 165.
--5621--3-44-43---4-
0-2-330-131----4-40-
16-66571-3250385-83-
3--9-2-1-23-----3--4
702-9--4--24504--43-
-6--532-32---4-64-2-
2---485--27--5--4253
-----54-12821--1-050
-32337----165--3-332
-3-3--1--221--56-722
4-8--27-2-0-364-34--
57-1-3--22--4--1--8-
-------624----5-----
4-2-533-7-15---6---5
-22-43-6---44253--3-
0-3----37--34-2-3---

Generation = 15, Population = 167.
65--3--743-5-54---52
123-4--1-4257-45--15
274-7-8-14------4---
-6-+-33---45-----35-
-134+3-5-3---15-25--
27-264-14-06--27----
---3--6633---653-3--
143336--23-3--2251-1
8--4--1-832--1---4-3
-4-4-223-3--1---583-
5--22---3-12----4-24
-83--4--3--25-1----5
-3423--7---124-3--33
-33--44-832--7572---
733---573--55-6--5--
-542647-830--532-44-

Generation = 16, Population = 164.
---6412---4616---4--
2----3-2-5-684-6-4--
---685912-2-0-8----2
---+----1256533-3-64
-2--+4267-2-52-03---
3-437-22--17043-----
----4877----17-44453
-----74-348-11-3-2-2
93---722--3----34-34
5---1334-42----6-9-2
-1--327-422-3-4254--
---12-5-42-3-2--1-8-
54--43--24--3--4-24-
-44--5----352-683-25
8-4-436-43266--3-6--
--5----3--1--643--52

*** Life<FredkinCell> 16x20 ***

Generation = 0, Population = 124.
0000-0---0--00---0--
00--0-0---00-0-0-0--
--0--0-0-0-0-0----00
0-0----0--0-0000-0-0
-00--00-0-0---000---
--00-000-----00-----
--0--0-----0--000-0-
---0-0----00---0-0-0
--000----0-000--0---
---00-0-00-----0---0
-----0-----0---0-0-0
0------00000-0---0--
-0-0-0--00-00-------
------------000--0-0
----0--0000-00-0---0
---00-0---00000---0-

Generation = 4, Population = 147.
010-3----002-130-43-
--12--0-11---2------
-----011-0--1--111--
0-0-01--22-0-22-1001
-22------2----1-1003
--4---21001--2----01
232---0---24100--320
-21---0-1---21-2-0-2
--21-0----10-23--2--
0--22-1-1-32-0-2----
-00-00--0-1-1-1-2102
--030--2-2-2-0----0-
--01----0--1---0----
-----------01-1-1---
0--2--040-03--2001-4
--3---111-112-4003-0

Generation = 8, Population = 167.
----420-22263-3--871
1-13104--5--14---110
-011002-2-0----23--1
-----2-3--1-2641-0--
---1131--23-0-3--415
---1-4------03----4-
4-4--10---3--0244-4-
-3531-22-1213524-0-6
0--3----0510-4--0---
2-1----0-----2-2011-
-22142-1223-1----243
-2-5-114331----1041-
0-03001---4-0132-1-0
1-031---3-2--230-202
032-21-6---72362-1--
3-------10--3----3--

*** Life<FredkinCell> 28x28 ***

Generation = 0, Population = 198.
-000-------0---0------0-----
-----0----0----0------0--0-0
-0----0---00-------0---0--0-
-000----0-0--0---0-0--------
--0-----0---0-----------0--0
-0--00-----0-----------0---0
0-----0--0-00-00-------00---
0----0----0--0------------00
-00-0--0-----00----0--000--0
-0-0000-----000-0----0------
---------0---------0---0----
----0------0-0------00-----0
--------0-0------0--0-----00
---0------0--00------0-00-0-
-00---000--0--00--0-0-0-----
----00--------000---0------0
--0-----------0---0-----0--0
00--------00-------0-000-0--
----0--00-------0-----0-----
--0-0--------0----00-00-----
0-0000----------0------0-0--
---0--0000--0-0-------------
-----0-----0------0---0---0-
--0-0---00---0------00-0--00
-------0-------00------0--0-
----00--000-----00-0-----00-
-000----0--------0-000------
--0-0-----------0---------0-

Generation = 1, Population = 400.
01-100------0-010----010-0-0
--000----010--010--0-01-0-0-
01-0---0001100-0-0010---0---
0-110-001-1---0-0--10--00-00
-01-00-0100------0-0-----001
---011--00010-00------010-01
1---00-00-0-10110-----0-100-
1-0----0-----100---0--0--01-
--1010--0-0--1-00-0-0-1-10-1
01011-1--0-011---0--0---0--0
-0-0-00-0-000-0-0-0---0-0--0
---0-0--00----0--0---100---1
---00--0--1---0-0-0010-000--
-0--0-00-01-01---00-0-011-1-
011-0-1-10--0-1--0--10--0-00
-0-011-00--0-01110-0100-0-01
0--000----00-01-00--000---01
11--0--000110-0-0----1110-00
000010011000-0-0-00--0---0--
0010---00---0-0--011-1---0--
---111-000--0000-000-0----0-
0--1-01--10----00-0---00-00-
--00---0--0--00--0-00----01-
-0------11000-000-0011010011
--0--00-0-0--001---000010---
-00-110---10-------1-0-001-0
011100-01-0-----01---10--0--
--10-0--0------0---000---0-0

Generation = 2, Population = 376.
120-110--00----2-0-00-210-0-
-01----0--2-0------10--010--
-2--0---11-2-1-1-1----0--0-0
1--2-01-2---0--0-0-2-001-0--
-1--1-0--11-0--0---1--0-01-2
00-1-20011---0---0-0-0----1-
200------010-1--10-0-0-0-11-
2-1---010----2110----0-001--
--2121---0----0-10-01-2---02
121---200---2--00-0010-0--0-
-10-0---1-11-01----00-10100-
-00-01---10000-00-00--1-0002
-00----1-0200-1-----2--111-0
-1------0----20----0--12202-
1-20-02-----1-2-----2-0---1-
010---01---10---21-1----1-12
100---0----10-201-0---1--012
2--0-0--11--1-10100--22-10--
1-112----11-----0---0--0-1-0
-1210--1100-1-1001----0-01--
-0-2--0-1--0--1-0----1-0-010
-0--0-20---00-0-1-100-11--10
0-1-00---0---1-00--------12-
0-00-00-----1-11101--2121122
-010----10-0-11----11-1-100-
--10-----021000000020---1---
12-21101--1-----120--21---0-
0---010-100---0--001----01--

Generation = 3, Population = 395.
23--2-1-01-00-0-------32-0-0
-1-0-0---030------0--01-2--0
-3----0--21----2-20-0-10----
-01--1--301-1-0--1-3-1-20-0-
0210----1-2-1-010-0-00101-0-
-10-131--201-100-1---1-1002-
31---0--0--1-------1---11--0
30--0-1-10000-2-10---10---10
--3--20-0-0-0-1-210----01--3
232---3---0---01-01--1-1----
-21-1-0-20----20--01-0-1211-
011--200----1--11-1-012-1-1-
01-0000-0-31--2-0-00-00--2-1
-200-00---100310--0-00-331--
2--1-1--1---203000-0--1-----
121---120-0-10---20----0-02-
21----1-000-1--12-1---200-2-
--010--02---2--1---0-3-121--
20-----112-0---0-000--0-----
--3--0-221-0-----21-0---12--
0-03111-2--100-0--00---10-2-
-1--10-1-10-1010--2-102-002-
1020--000-000---1--000----30
101-0-101------22-2--32-2--3
-1-100002-01--21--0--02121--
00-1-100--32-11-1113---02---
-31-2212-0--00----10-320---0
1----2-02--0-0-0--12000012--

Generation = 4, Population = 389.
3-0--1--1-0-1--2--0----30--1
----0-0--14---01--11-12---01
0--0-0-0-32-0------1----0-00
-1--0--0-12-2-10-2---2-3--10
1--1--002--020121--11---21-2
02-12420131-021-0--0-202----
-2--0100101--1-11-0-0-----11
---0--2-2-11--3----00210-121
-041-31-10-01--0---0----20-4
34311--0--10211-0-2-12--0000
032--0-031--00-1--120-1-3--0
----0--1010--00-----1--02-2-
-2----11----0-3-1-11-1--130-
0--101-0-0-114--0-1-1--4--20
3122-22-20--3-41-------00-1-
232-----101-2---2-----0111-2
--00002-1-----2-302---3---32
-11-10--311-301--001----32--
31112002---1--01--1---------
--4--10------0--0-2--10--3--
-0--2-2-30--1-110-1101-21-30
0201---2-2--21---03--131--3-
--310----0----002001110-----
----102-21--1-----3--4-23--4
0-1-11------0---0---1-32-200
1112-2-1----0--02---0-01---0
1-223-231--011-01-210-31000-
--1--30-3-0-01--00-3-111-300

Generation = 5, Population = 393.
---1---0-11--0-3001--0-410-2
--1-------50-01-00---23--0-2
--0---01-43-11---2-20-1---11
1-12----3--0-0--0-0-----0--1
22121----121-1-3--0-20103203
----35---4-1-----1-1-3-3-02-
-300-2-1-12--2-2----10------
---1-0-1-------11---1--10-32
--5224-0-1-1--1----11-2--1--
---220-10021-22---3--3-111-1
-4--1--14-1--1---0--10-1--11
0-10---212101---1--02--1303-
--00--22--3-1-4-2--2--01--1-
12-----101-2-51-1-20--153-31
423-0-30-1---0520-0-2--1-020
-4301--2212-30--3-0--0-222-3
211-113--0----3--1---04--04-
--2-210---214-2----20-2143-0
42--3-13-2---0-2-----00-0---
015-0-1-21-0--101-----1----0
-10--1304-012-2--02--2--20-1
131-1---0-00-21-1-40124--04-
1--2--00--0---1--1-----00-30
1---213-3-002012--4-15--4--5
1121-2-020-1-1--100120-323-1
2----302------1-311---12--01
23334--4-0-1----2232-34--1-0
102--4-04--0--0--114022-1-11

Generation = 6, Population = 378.
----2-1--2--110411200135---3
-12---0--1610121-1-1-----10-
03---01215--22--030310200-22
212---1--1212-1--21--2--1-1-
--23-------2-2----1131-1431-
0--1--201--20---0-0---040---
34--0--2--3-1--3-0----0-11-1
-01-0---2-11-2--20-----21143
-06-35--12021-2-2--2-0-022--
-4-----2113----1----140---02
---02-025--1-2----------31--
-1-----32-----012-1----2--4-
----0033004-205--0---1-21---
--010-02--1-1-20-----0--414-
---21-41---0-16-1--0------31
25--2-1---3-4-1-4211-10--3-4
322022---101--41---0---00152
-13-321--13-503--0031-3-5-0-
--11-02413-----3---0-1101---
----11----01---12-2--120-301
0213224-50--30--01---3023-32
-4-1---21-1-232------35-0--0
----0--100-001----01---1-1--
--1032--41-1-123-050--22----
2--21---3102022--1--3-3-340-
-1-----3--------4-2300---112
344-52--1--21--0----0-5-----
-1------5-0101-0--25-3---32-

Generation = 7, Population = 387.
-301--2013---215-2-1---610--
--300----2----3-----0----2-2
-40-01---6323-0-1-14-1---033
-2----2----2---0--230--3-0--
----1--021------1-2---1----3
1--2-53124-------11-0--51021
----12-3114-2-1--1---01-2-12
-1------302-------00-2------
01---61-23-321-03-0-112-3-0-
35-2-0---2-122------251--113
--213-1-6-------0-1-101-4211
0-10-2043-1010--30-0-1233--2
-20---4-1-----60----22------
-2121113--222-31-0-0111-----
42--2-5-2-0--2722--12-1-00--
---0-12---4--0-1---2-21--4--
--3---3-1--21-52--2--041126-
--4------2-16--111--234--31-
---2-13---1100-4-0110--1---0
01-1-212-112-01--2--02-1-41-
13-43350-10------2--04-3-0-3
-51210--2--03-3010401---1--1
-0321-0---0-1210----11020-30
1021-33-520--234--6--5----2-
---------2-3-3---201404345--
22-2-30-003--11--13--11---23
4-5-632-20----01---21--1---0
-2--04-06-1212-101360---1431

Generation = 8, Population = 335.
341--13---1-1326------37--03
-141--00---10---0111---0--03
0--0-2--1--34-12------2001--
23------3--3----02341----1--
22----0-3-22-----0---1-14--4
-20------5--0-1-------062-32
34--2-0--------31201--2131--
-21-0-2-4----2312--11-1----3
-2623-2--40-3--14-12-----21-
--33213-13--3-21---03-211---
----4-227-1----110-2--21-322
-12-03--4-2--1---11--23----3
--1000--20---------2-3021--1
-32-2--401--35421----2-541--
5--23--1------8-3-02----1-3-
25--2232-15--1-----31-2-2---
-24---4------063-----1-----2
-15--2----327--2--0--4-1----
42-3-----3--1-0501--11-21-0-
----13------1-2-2---1-----21
-4154-6-5--130-1----1--43134
-62---2---11-3-1-1--23512---
-1----11--10-3-1-1---2------
213-34--63---34-2-7-1-2---3-
--2-----3-----211-----5--601
-31-1-----4-0---4--30--22-3-
5--3---43-1211----3------10-
---0--01-02--30----7-3--2---

Generation = 9, Population = 378.
45--22---3-0---7-221-14-10--
0-5-00-1----1--11--20-3-----
14-1----2634--231---1131---3
3-22-120-1----1-13--2-0-1211
-3---0--413---1--1-1--1----5
13123-----------0-11----304-
45003-1311--221-2----03242--
-3-1------2--3--3-022-2-1---
0--346-02-1-4-22--231--0-32-
---4--42--314-3200-14--221-3
-4------812102----13--3-44--
02-01----2301-01--202-4330--
-22---4-3---2-6020---413--12
-4----1-1-224-5--02-131--2-1
62-34-----0-32924-1--01--0-1
------4--26142114---22--3424
-3-0225--1-2----3-20-2-11-6-
-2--3-----4---3----3---2--10
5-1-----1------612-1----2-1-
0-51-4--21---03-3--1------3-
1-2--37--1--4-22-2-1----4-4-
17--10--22-23----240-4-2--41
--3-1--2------1222--13020-3-
32--45---4-12---30---532--4-
21-2-2-04-0-0---2201-06--7-2
-4-2-3-3-0521-1-51-411-33---
---4----402-2---22-213-102-0
1-21041-61----11------21--3-

*** Life<FredkinCell> 40x28 ***

Generation = 0, Population = 272.
0--00------0---0-----0--0---
---0-0------0----0-----0-00-
-----0-0-0----0--0-------0--
--0---00--0--------0--000---
0-0---0----0--0--00-------0-
0-----00-00-------0-000-----
-0000-----0--0-------0------
---00-------0-----0-------0-
000------0--0-----00--------
0---0------0--000---0---0-0-
------0------------0--------
0-----0-----------00--0-----
0-0-----0-0-----------------
0-----0------00------0--0000
---00----0-0---0------------
---------0---00-0------0--0-
--0-0----0-----------------0
-00---------0-0-0--0--0---00
---0000-000----0-0------0-0-
0-----00---00----0--0--00---
-----0-0-----0--0-----0--0--
---0---0------0------0------
0--------0-000--------0-0---
----------------------0----0
0-------00-------0---0---0--
--------------0-0---0-------
-0--00-------0---0-0------0-
-00------00--0---0---------0
0-------0--0-0-0--0000---0--
0------0---000-----00---0-0-
------0-000--0---0----00----
00---0------0-------0---0---
-00---0-00--0---000-------0-
0-0-0---00--0--0-00------00-
--0-0---00-------0---0----0-
---0---0--------00----------
-0--0-0------0-0-----0------
0----------0-0---0-0--0-0--0
00-----------0000-0----0-0-0
----00----00----------------

Generation = 2, Population = 517.
-1-02-00---0--10---0-010001-
-012-21-------11-----11--0-1
--1-121--0-01-0-1211-0-00-00
---1--00--0-------0--1-02---
-0-101-10-1-1-01-2-011--11--
2--1-10--200----0---------1-
0-0201--00----10-0-----0--1-
-01-01-0-1-1---0--2-010---0-
-0----00---0-11-11-20-------
---10----1----2-21-1--0-0---
-0--1----00-0----002-0------
2-1---2-1--0-0-0-1--1---00-0
--01----00010--0---1--------
--1-1-0-11-11220--0----120--
101-21101-00-----0---------1
001---00-----221--00--1-----
0-2-01-01-1------0------0012
---00-10-011-00---1--1--1100
-1-2---1-0200--012-1----2020
01-111-00-0-20010-1---0--0-0
1---1-10100-000--00-1-000-10
10----12-1-1----10-01-1-1--0
--0--0--1-0---0000--00--0-0-
---0---0--------0----0--11-0
-10-0001-21-0--0-0-0--0-1-11
-10------10-000-01----------
--0---10-1---2-0--0-00--0---
---11---0--0-01-1-------0100
201-00--0--2---01-2-22-0--01
---------1-00-11--0-00----01
010-0--1-020-2-010------1-1-
2---1---0011-000-0-10---011-
1-011--00-11-1-02-0110001-2-
01-021-----12110---1---0---1
1------0001010--000--0-00-2-
-10-1---0--0010-------0-0010
00-0--0--0-1--0-0-01-0---001
2-0010-0-01--0--0--0100-0012
02101-0----01-0--10-0--0----
1-012210012-1----0-0--0-0--1

Generation = 4, Population = 486.
----410210-----0-0100-----3-
10-2-23-0-0-11--021013-1-2--
0-30-4---0---0-1--3-----0--0
0-1-1-----200-01---10--0---1
1013--01-1-1102----2----1-0-
4-----2---2-0001--1-2-11--3-
-2----0-2--------0-0--------
--1-------0---1-0-2----00-2-
121-0-----12-3-1111---00--1-
1-1-0---13-110402--10----1-0
-0-------0-1-0-------0-0----
---0-----11-00-20-----0---0-
-12-0---------0---01-------1
201------1-33--0--00-0-32-1-
1--12----220-0---0------1-1-
-----1-2-001-4---------11-10
2-4---02--3-----1-----11----
-2-0-1-21-1-12-01---1-1-3-02
-302-1012022-110---111--2-4-
---13--20002--230--011211-0-
11003---3--10-----0-3----13-
-200---2--010----2123-3--112
-0001001--0-----00100---0-0-
011---02-10010----0-0---3302
1-0----11--02--00200100--1-1
1--1------00-22-2-01-1----1-
-----23---0102-0-----21-2-1-
-----0---1--0-3--2--000001-0
40----11-0-2--1---41--000-23
1--0---1---22-331-2---1111--
-1--2-1-2-4-140--00-------10
-0-011-10-1--2--0---0---2--1
--2-------13--0-4-21-0---14-
--1--310---3--1-12-30-0-----
31--11---01-1-102-2--0----41
11-11--0--0--3-------1--0---
0----00---130---2021-----20-
2---32-00-3100-1----32------
2----0--1-1211-11---2-1---11
-1-3--3-01-2-1101--0--0-0--1

Generation = 6, Population = 533.
1----322-200---0103--02---31
-2---431--0---3224-2--11-2--
0-------0--23-2-2-5---0-0122
-1-2101--14----1-011-2---003
3----203-11-1-4-0-04-11---20
--1-------2-022-10-0213-0151
-------022--1-2-0-0--1101---
1-3---1--322--1-2--001-02--1
---02-------251-1-1----0-0--
--322--1-----04-2-0--0--11--
0--1---0-023--0-01---01--111
----00-0--3-2-1423---0-01200
-12---0---1-0-------1--11011
--1-20---31-5-20---00----131
----41--244-121-1-0----11-11
1-3----4-0010--21-110--11-1-
21--0-2421--1--0-100----11--
-4-20324-1-23-2-11-0-23--10-
1--41--12--21--2---1111-20--
-1---2-2--2--125-22-1--11-0-
-3-0-1--5--3---1-0--30110--1
--0---1---0------2---------4
0-021-2--0--0-1-----2-2-2--1
03-0-0----2----1-10--1213-22
-2-0-001---221---2023---23--
------11130----0---11-1-1-3-
-1112-520-03----0--1-41-41--
---2---1---2-15-3-002-02-3--
4231---1----1110--4--2--2-4-
3-100--303---25-3-2-----3-21
03-14-11-162--0-2--11022----
32-2-3130112--1--1010--12-33
----301-------214-412---1--0
---1---2----3211-4-3--0-0--2
--1--1--2-11121---2002-011-3
-1131----001-30-11---3-1--1-
0002---11-350-1040-3--000--3
---1541--05-0---211--4-0---3
--11-2-0111----31-104-3---31
2-------0------2--10-----10-

Generation = 8, Population = 522.
1-006-422422----3-5--2-00--3
-2-3--51--2--23-24--34-31-2-
0-3---2--0-4-142-273--21-14-
----1--0---1----0------0-005
--3502-5--3------206------4-
-112-3--1-4---42--1--1-30---
2--31-----2031----0-----3--0
--301----324201-2-4-0-22----
2230-12-0------1-1--10--0-3-
-1---1-3------6--32---0--3-1
0--33-200-45---1--------1331
--3---3-3---4----3-01-1----2
----01-01-11-10--1----1--01-
---0-01-233--3--00-20-043--3
3--34--1-46------0-1-0111---
-2-1020-0---2--2-1---12-3131
----2---2-3-------2------1--
1---034-131---20--2032-----4
-4-41203-1-21-3-------11205-
-3123---1-2-332-124-1-3-3--0
-52--3--5-13--0--0113--3024-
---2---4----1011---3413--1--
-2---1----12-1101--221414-0-
03---2---2--22--1--013-15---
1---1----3--23---22----0-53-
21--1-3--3--1-403203----10-1
-3-3-25---0323-0--0---3-41-0
10221-0---142---52024--405--
42-30---1-0331-2-1-2--1--16-
3---01050---2274504-1-------
--2--1-----22-0--1---0223020
-2----1-033224--2---2-0-2--3
21---2---1----4-6-4-211-1-5-
122-331211143-1---0---0--12-
-13--1---21-3230---2--10--6-
2115----2-0----1---0--1--1--
-22-1-1331-7021---3312-0-4-5
3----63-10--211--3-13----1-3
--3-3-22-3---2-3-2-2-1-000--
--1433--22--21-4-2-00---130-

Generation = 10, Population = 561.
-3-28---2--41--1-25-0--002--
-2-5---1-1----3------4--1--2
0-3--642---64---32---0--216-
-------21-----1102--13-23-0-
30-----71-5---6-1---2310-261
5334053-12--2-6--110-1-5---2
----12-1-2-2513-1-01-33-5120
10-0112--5---2---1-----4---2
-45--1----2-4----3-----102--
---223053-131162334-----35-3
--05--22---70001-1--11-1--3-
31-0---1-23--0-545---131---4
--32-102-21--1-101--211--23-
--3---3---5-6-22-2---1---1-3
31---22-34--3311--1-1--330--
2231-2-62-------1-2-21-2333-
324--32-2--1--1-21-110-1-322
1-02254----2--223--0--31--14
-----42-3-2-12--34-2-21-40-2
-53---13-24333----41--5-3-1-
3--1----7---1---003--0-52-62
131210--0--332-114--4--12---
141-33-3--3-03-21------3410-
-3300-13-42--4-13-0033435432
1--2---1--2-4-----2-----3-5-
2-2--1-235--1--2-4-52-30--4-
---534-30---2-1-2202----632-
---2--222-3-4--174-----62-1-
6-5--12-310531-4-1443-----84
--2--3-5---34-----6-1--3-2-3
2----3-33--2-----301--4-502-
-4032-14--344---42----0-2--5
233------12-0162-1---1-13370
1-21-31--1--3-113--32--003--
--5--302--333-50---41-323-85
---7-1104--21----100-4321-1-
22241-1-3-5--4-0--5334--141-
-002-85-127--11-4-2335-1112-
43--53-----23-1---225132--3-
-2---53------1-6--10-0-0----

Generation = 12, Population = 575.
2---+-4324----1--4-1-----4-4
-4-7----21-02-33-4-2463-14-2
0-3-38--0--8625-32---0------
0-2-2--4125--1110-22-5---00-
---723--3-5--2--342-23-----1
5--42-51-2-143--33---1-70-7-
2--5--113-3--3301-010---71-2
--4-31411736-4-12------630-4
3-71-141104-6-3-132-11--2-4-
-352-52---15---4336322-1-51-
1--7--240267-023-10-3----43-
53--22---2-14-2-67--3--1---4
--3--3-22--3032---1-411-3253
3-5--1--35----2-2-0-2-1-3-43
-1355-22-6623----032312--22-
4253-218-1-23-2--3--4-245--2
546---254---21----4130-12--2
36-----6--14-22---30-431-3-6
-60-14-5------3--6-2-43---6-
07-3-3152-6----62--133--3--1
----34-09-------02324---4---
-5-4-0-4-3--3--114-54--3--15
----534--0-405-43-2---5-430-
1-5-0-3----23-01------4-5---
---4-----4--63-122443-125-5-
-1-2-34-5--21-52-6---1-----3
-3---47-2--524----0--541--4-
20--1-2-4--541-------1--2--1
6-7-2-2--1-7------6433--41-4
4141-3-71-05-3865-6-31----25
2323---55-72-511332-2-6-5241
-42----4-436452-6---3-2--25-
2--35-12----21-27-6-21313570
---34------434----23-0---3--
4---2502225-5---21-6---2--8-
4--93-12--2-1-2-232--454-3--
4-443014---816--4--35-----3-
4--2-8511-71211----33-2--3-5
-5417--334--5-34-3--71341-5-
--244--1-234-12----0---22-2-

*** Life<FredkinCell> 21x49 ***

Generation = 0, Population = 392.
0--0--00-000-----00----0-0---00---------------000
0---0---00-----00----0--0--0-0-----------0-------
-0---00---0----0---000-0-----00---0--00-0--0-000-
000-------------0--0--0-0---00-0----0------000-00
0-0--0---0--0-0--0--0---0---0---------0---0-0-0-0
-00--00---00----000------00-0---0-----0----------
00--0--------00000-0---0-00-0--0---0----00-0-0---
00-00---00-0--0-0---0---00---000--00--0-0----000-
---0-00--0--0-0000--00-00--0-0-0---------00-0---0
0-000----0-0-0----00----0--00----00--00----0-0-0-
00-00--0--00----00-0---00----000--00----000--0-00
0--00000000--0----00-0-000--0--0-00----0-----0--0
-0-----000---0-0----0-0000--0--0-0--000000-0----0
0--00--00--0----00-----00-0--0----0-----0-----000
-0-0000-0--------0--00--0--00000--0-----0----0-0-
-0-0------000--000--000--------00---000---0---0--
00--0--------0000------0000000-0--0---00-0-00-0-0
0-----0-0---00000000-0------0-0-0---0-------0--00
--00000-0----0-0-00-0-0-0-00----00----00-0--0000-
-0--0-0-0--0-----0-0--00------0--0-0-000-00-00--0
0-0-----0---------0------0000---0------0----00--0

Generation = 3, Population = 538.
-----2110---2--0-3-0--01-00-20121--0-110-001-0-03
1110----1---01---1--0---1--1--0-0-0----100-0-2012
01-1-3--0-12--2-00-1--202002-33--0----1--103-0-0-
-3--012-1-21-0--0001-010---01------0000000--1----
-0-20----0-11-0-031-1200-120-1-2---1---002-010--1
2-121--21013-20110-0001-1--1--10---2-03--00220---
011---0-0-01-33--------02--01----0010----11-03120
-000102---0-10---2011-0--10-1--3-2-0----3-2-1-01-
0-00131-1-001--033--0-0331---3-3-2----01--1-10--0
10-010---3-3-0----3-001-02--3--1-30-01-----1--1-2
3-011--3-0-000-2311-0-0--010-----21-0---1-11--11-
3--13-0--1-02---0----0230---30--10---0----0-0--1-
2--100011--2-30-122100101-0---230-223-------0-2-0
-00-11--3-21201-3-0--201-0-10-0---3---0-000010---
13111-1-12200-1---20-----211-----0--0---3-2---130
0-0-222--23-111-1-2-1--00---100-3--2101----02--0-
-12---2-00022-30--0-00-31--01--10010-111--23-1301
-0-2-010-0-21-----3-0-------30-21-0---1-0-1-102-0
-011311-0-1--------1-01211--1----00-2-111-1--1-12
--------0220-01-2--012-1--000--203-00--1-1301-001
1---0-----10--0111--0-22--11---00-100211---200-0-

*** Life<FredkinCell> 21x49 ***

Generation = 0, Population = 262.
0---0--0-00-0----0----------0-0---0-0----0---0---
0-00----0-0-0------0-----0--0-00-0-----------0-0-
--0--------0-------0-----0------0---------00----0
---0--0-0--0-0---0---0-00--0-----00--0---0-------
----0--0--------0----0000--0----0---0---00-0-----
0-0-0--0-0---00---------0--0--0-00-0----------00-
---00-------00--------00------0-----0------------
--0-------------0----00--------------------00--0-
-----0----0----0---0-0-0-----00--0-------0-------
---000-0-----0---0-----0-----0---0--0-0---0------
-000-----0----0-----0---0----0------0000-0-0-0-0-
00--00-0-0-00--0----0-0-0-------0---0----00---0-0
0-----------000---------0---0---0-00---0----0---0
-00--0-----0-----0----00----------0----------0--0
-0---00-0---000-00-0-0---------0-00-000----------
-0000-000-0----0-000-----0-000-0--0---000--------
----0----0----0----000-----------0-0---0---------
0--0----000---0--0--0--0----0------------0-0---0-
00-----------0----------0-0--------0---00-------0
-0------------0--0---000---0-----------0--------0
--0---0--------0-0--00-00-00---0----------0-00---

Generation = 5, Population = 525.
20-204-1110-----0-010-1---12-0---02-1131----05---
3-3-1--00--234012-02-1-2---0----20-10100020-05---
0--210-00211--0-0-0----0--0012----2--0-1--13-11-0
---11-12-2-23---2--22--1-32-4---021---10-2-3----0
0-0-520--4040111-0102--13242---1-2--3---2--02001-
1-0---1301-330110-1------2--4-5----0012202--04132
-----0----04---02-103-1-13-41--00-----3-1--20201-
0---2401--0--1010211--110-2----031-02-021----0---
1-21--1----1--1--2-1122110112----30--1---1------1
-00----0---0102-1--411-23---0---1-2-12---21----2-
2---4-032-220--1---22--3-2--2--14201-0-5----0-0--
----33-01--1032--10--1--11--1-0231-0-1-31---0111-
3-20--10-------112-----1----0-0---01-0-021-4-12-1
0-3-2----0-0-1230-2---2-0--3-3--02-0-01-1----0--1
2---22-23-00--2233431-02--2--1-21---2011---2----4
--2---001124144-1--52---0-0---35--300-32---32----
202-12-221--10--1-1--21132-2----20-023----110--01
3---1--21---20-0212-1-2-002-010-20--0-111-0---001
--0-1--0-4---2-123-10-421----01301----2--12-3--0-
1-2---1--110-----310-0-02-23-30--0-10--1-----0---
0--0101--1-10-202-1-20-2-1-02021--010021--0113411

Generation = 10, Population = 518.
-1231--14-31300--32--210-5----20214-2--2121---022
31-----31-3-3----05-1---2--02-3350-42---0----825-
-0--2-35134---11--3342-3-1-34--02--3-3--2-3--23--
-11--13--20750--4--24-51-3-4-0-31--40-202-24-1-21
--22----361-0--1-13--11-3-5-2---6-0-4--3-2----2--
413--22-02-64341-1---2---24---64--2122-22------4-
---3--142-1---2-5131-1-2---61--0-5--213-2--3-51-2
--1357--13-11-5623-----35---1--16-23---3--2413452
-433-2-5-224--3--7224372-0--34----33-655--01-412-
-3-52-21----2-2--1-71---4-1-3-0---22-7--2---232--
3--4---33--2--2--3-32--5752-2-64572--0-6-45-5--12
----4823-51--4---3-1--24-231--25----23--10-----32
-1-10--0---2-15--412-51-6---2-3--12-2----43-26434
-2623---3----3--234----11-144-1--50111---13--3132
-4-32313330-4---366-2215---024-3--22432---1--00--
-05---30--476----1--3---361-1-65-1-------------22
--312-24---1-32--2232-6332--0-03321--5-34----1---
--0--10--2---13---3--1---3-316-2-23-212---1----11
---242---71-03--54-400-4-0-643242-22-0703-32-0---
---1--2-443122-02--10-0-----74-2---4----2-03123--
---14--2-63-1--03--1401--461---4--1--1---2-2---1-

Generation = 15, Population = 500.
----36--4-425233-4-7-4---65--33---6--6--43-225---
--3612--64---5-5-0+-2-5544-0--3---2-----1--62+4-3
4-4--3-64474-1--13--55--1---562--2-6---22-46----4
-12--6-52--8-3----23-6--1------63-351-5--32-4627-
70---23--7--06-23----3--4---3--4--13-2--536-31212
-2-+332-13-89-7---121-64--46--7-23-------6--55---
2---03----4-2---51-4-263--28-3--2----66-531---1--
-5---9-62---44-74-53-24--0502-1-81--73-64--5-6-6-
75----47422434444------41025-7-6256-5667---12-24-
-62--25-15----41--18--4-7-4-4---727-4---353-3----
-----7--42--4----31---16-6--389-77-24-46-5+---22-
144-----2+2-16-2--6----6---2-5-77142-5086--1-4-83
825---613-04-4+247-----4---37--2--5-2-2----------
33-5-----2--26-42-92-14-112-97---5133-4---4206---
4-1-54--5304946--77-----625-2----33--4---23--233-
236------47-99-2--2-3344-9---4--33--62-23-----1-5
3-8-3-4-3-3-6-2-12452-94-42---0--32----46-3--3---
5------6-52--3415-42-4-0134327-4-----1-2---31---4
1-----0--91-----5---3-554--64-3-7-233-+0-562-2---
4-6------------3--92--5332---663-2--502-5-0-1-62-
-44--222674---6-4344-114-79--3-7------6---4-2+5-3
