*** Life<ConwayCell> 3x15 ***

Generation = 0, Population = 23.
*..*.**.***.**.
..*..*..*...*.*
**.**..***.**..

Generation = 11, Population = 4.
....**.........
....**.........
...............

Generation = 22, Population = 4.
....**.........
....**.........
...............

Generation = 33, Population = 4.
....**.........
....**.........
...............

*** Life<ConwayCell> 18x6 ***

Generation = 0, Population = 7.
......
*..*..
......
......
......
..*...
......
......
......
......
....*.
......
......
....*.
*.....
......
...*..
......

Generation = 3, Population = 0.
......
......
......
......
......
......
......
......
......
......
......
......
......
......
......
......
......
......

Generation = 6, Population = 0.
......
......
......
......
......
......
......
......
......
......
......
......
......
......
......
......
......
......

Generation = 9, Population = 0.
......
......
......
......
......
......
......
......
......
......
......
......
......
......
......
......
......
......

*** Life<ConwayCell> 11x20 ***

Generation = 0, Population = 1.
....................
....................
....................
....................
...................*
....................
....................
....................
....................
....................
....................

Generation = 10, Population = 0.
....................
....................
....................
....................
....................
....................
....................
....................
....................
....................
....................

Generation = 20, Population = 0.
....................
....................
....................
....................
....................
....................
....................
....................
....................
....................
....................

Generation = 30, Population = 0.
....................
....................
....................
....................
....................
....................
....................
....................
....................
....................
....................

*** Life<ConwayCell> 1x17 ***

Generation = 0, Population = 2.
........*....*...

Generation = 3, Population = 0.
.................

Generation = 6, Population = 0.
.................

*** Life<ConwayCell> 4x4 ***

Generation = 0, Population = 7.
**..
**..
**..
...*

Generation = 6, Population = 2.
....
....
..**
....

Generation = 12, Population = 0.
....
....
....
....

Generation = 18, Population = 0.
....
....
....
....

*** Life<ConwayCell> 13x4 ***

Generation = 0, Population = 36.
**.*
*.*.
..**
*.**
***.
*.**
****
****
..**
...*
***.
.***
***.

Generation = 2, Population = 3.
**..
*...
....
....
....
....
....
....
....
....
....
....
....

Generation = 4, Population = 4.
**..
**..
....
....
....
....
....
....
....
....
....
....
....

Generation = 6, Population = 4.
**..
**..
....
....
....
....
....
....
....
....
....
....
....

Generation = 8, Population = 4.
**..
**..
....
....
....
....
....
....
....
....
....
....
....

Generation = 10, Population = 4.
**..
**..
....
....
....
....
....
....
....
....
....
....
....

Generation = 12, Population = 4.
**..
**..
....
....
....
....
....
....
....
....
....
....
....

Generation = 14, Population = 4.
**..
**..
....
....
....
....
....
....
....
....
....
....
....

Generation = 16, Population = 4.
**..
**..
....
....
....
....
....
....
....
....
....
....
....

Generation = 18, Population = 4.
**..
**..
....
....
....
....
....
....
....
....
....
....
....

*** Life<ConwayCell> 20x8 ***

Generation = 0, Population = 54.
.*...*..
...*....
.*.*....
**..**..
........
****..*.
**..**.*
.*.....*
...*.**.
*...*.*.
...*....
**.***..
.***..*.
........
**.***.*
........
....***.
....***.
*.*...*.
....*.*.

Generation = 14, Population = 34.
.**.....
*.**....
**..**..
....**..
.***....
.*.*..*.
.....**.
....*...
*.......
*.*.....
..*.....
**......
........
***.....
....*...
..**....
..**....
........
........
........

Generation = 28, Population = 18.
........
........
........
........
........
......*.
....*..*
...*....
...*....
...*....
**..*..*
*.*...*.
.*......
........
........
..**....
..**....
........
........
........

*** Life<ConwayCell> 8x18 ***

Generation = 0, Population = 65.
.*.**..**.*...**..
.**..*.**.*..**...
*....**..***.*.*..
***.***.*.***....*
...*...*.**...*...
.*...*.*.****....*
.****..*...*...**.
*.*.**.*.*....*.**

Generation = 2, Population = 49.
**.*****....***...
*....***....*.....
..................
*...*.......*.*...
*..**..*.......*..
**....**..*******.
.*...*.*.****..*.*
.....****.......*.

Generation = 4, Population = 27.
**..........**....
**...*.*....*.....
....***...........
...*...*..........
*......**.........
..*....*..........
*.*..*.*..........
......*.***.......

Generation = 6, Population = 20.
**..........**....
**..***.....**....
...*...**.........
....*.............
.....*............
..................
.........*........
......**.*........

*** Life<ConwayCell> 18x16 ***

Generation = 0, Population = 107.
..**..*.......**
.*..***.........
..*...*.*****.**
.*..***.*...*.*.
.**...**...*..*.
*..*.**...*.....
.........**.*...
..*....***....*.
...***.*..*..*..
..*.****.*.*.*..
...*.*..***.*.**
**.***.***.*.*.*
.**..*..*..*....
.*..*...***....*
*.........*..*.*
........*.*.*.*.
..***.*.*.*.**..
.*.*.........*..

Generation = 3, Population = 99.
..***...........
**...*.***...***
******...*......
***...*...***..*
...*..*...*****.
.*...*..........
..*......****...
.....*.**.*****.
.***.*.*....*.*.
*.*...**........
...*.*........*.
*.***..*.......*
*.***..*.....*..
.**..*...*.*....
.*....*...*.*...
.......*.*..*..*
.**.*...*..**.**
...*........**..

Generation = 6, Population = 66.
.**********.....
.*....*...***.**
......**....**.*
.....*.*...*...*
.....*.....*..*.
..*.**.*........
..*..*..........
.*....*..*......
.*..**...*...**.
..**.*.**.......
.....**.........
....**..........
...........*....
.*.*........*...
.*.*........*...
.......*.....*..
...........*....
............***.

Generation = 9, Population = 58.
......******..*.
.....*.**...**.*
....**.....***.*
....***.........
....***.........
.....**.........
.....***........
**...***........
.......*........
..*.*..*........
..**.*.**.......
..*...**........
...**.......*...
............**..
...........*.*..
............**..
............**..
................

Generation = 12, Population = 41.
.....**....***..
....***.........
.....*..........
................
................
................
.....***........
....*...*.......
................
.**.*.**........
....*...*.......
.***.*..*.......
.....*..*...***.
..........**....
..........**...*
..........**..*.
............**..
................

*** Life<ConwayCell> 14x19 ***

Generation = 0, Population = 80.
..***..*..........*
*..**..**.....*....
*...**....*.**.**.*
..*..*..*....*.**.*
*.*.....*...*......
*.......**........*
...*.**............
***.....*.*.......*
*........*.*.*....*
..*..*..........*.*
....*..****.*.....*
...*..**.*...****..
....*..*.***..*.*..
....*.....**....**.

Generation = 2, Population = 75.
.***..*.*.....*....
.***........*****..
.*.*.....**......*.
....**...**..*****.
....*.**..*.....*..
.*....*..*.........
*.*....*..*........
*.**......*........
*.*......*.........
...**...*..***...*.
...*......*...*.*..
..*......*......**.
...*...**..*.......
....***.*..*.****..

Generation = 4, Population = 71.
.............**....
**.**....*.******..
..**....**.**....*.
..**..*.*...****.**
...*......**..*.**.
.******....*.......
*..**......*.......
....*...*..........
....*...*....*.....
.*...*..*.....*....
.*...........*.*.*.
......*..........*.
..*.......*...*..*.
...*....*..*..**...

Generation = 6, Population = 58.
...................
.......*.**.....**.
...**.....*...*..**
..........*...**...
.....****.*****.***
***...*...***....*.
....**.............
....***.*..........
....***.*..........
........*....***...
..............*..*.
.............**..*.
.............*..**.
..............*.*..

Generation = 8, Population = 67.
.................*.
.........***....*.*
.....**.........*.*
....*..*..*..*.**..
.......*****...**.*
**.**..**.*....**.*
...**.....*......*.
..**.*.**..........
....*****....***...
.....****....***...
................**.
.............***..*
.............*.....
...............*.*.

Generation = 10, Population = 51.
.................*.
.........***....*..
.....**..*.*...*.*.
.......*...**......
..*...**..**.......
..*....*........**.
.*..*****......***.
..*.....**....***..
...*.....*...*.....
.......**.....*.*..
.......*.....*...*.
.............*.....
.............*...*.
...................

Generation = 12, Population = 55.
..........*........
........**......**.
......*..**.....**.
.....*....*.*......
..*...*.**.**......
.*.***..****.......
......*.......***..
.*.....*.**..***...
...***.*.*...*.*...
......*..*..*..*...
.......**......*...
............*.*....
.............*.....
...................

Generation = 14, Population = 51.
...................
........*.*.....**.
......*.*..*....**.
.....*......*......
..*......*..**.....
.*......*..*.*.....
..*......*.*.**....
.......*.***.*.**..
...*...*.*..**.**..
....*....*..*......
.....****....*..*..
............*..*...
.............**....
...................

Generation = 16, Population = 40.
...................
..........*.....**.
...........*....**.
...........*.*.....
...........*.*.....
........**.*..*....
.........*.*.......
........**......*..
........**..**...*.
....**.*.*..*...*..
....*...*..**...*..
.....*..*...*......
.............**....
...................

Generation = 18, Population = 37.
...................
...........*....**.
..........*.*...**.
.............*.....
.........*.*.......
..........*.*......
...................
...........***.....
......*.***.**..**.
....**..........**.
....*.**.*...*.....
.......**.**.......
............*......
...................

Generation = 20, Population = 35.
...................
...........**...**.
................**.
.............*.....
.........*.........
..........*........
.........*.........
.........*.*.**....
.............**.**.
....*.*.*...**..**.
......*......*.....
.....**.....*......
.......***.**......
...................

Generation = 22, Population = 35.
...................
................**.
................**.
...................
...................
.........**........
.........*.*.**....
.............****..
...........**....*.
......*........*.*.
...........*.**.*..
.....*..*..*.*.....
.....**.**.*.*.....
........*..........

Generation = 24, Population = 29.
...................
................**.
................**.
...................
...................
.........**........
.........*..*......
..........**..*.*..
..........*..*...*.
.................*.
......***.*.....*..
.....*......**.*...
.....*.............
......**..*........

Generation = 26, Population = 24.
...................
................**.
................**.
...................
...................
.........**........
........*...*......
.........*..*......
........*.......**.
......***.*....*...
.......*........**.
.....*.*...........
.....*.............
...................

Generation = 28, Population = 16.
...................
................**.
................**.
...................
...................
.........**........
........*.*........
.......**.*........
...................
.......***.....**..
...................
...................
...................
...................

Generation = 30, Population = 16.
...................
................**.
................**.
...................
...................
........****.......
.......*..**.......
.......***.........
.......**..........
...................
...................
...................
...................
...................

Generation = 32, Population = 19.
...................
................**.
................**.
...................
........***........
........**.*.......
.......*...*.......
......**.**........
........***........
...................
...................
...................
...................
...................

Generation = 34, Population = 26.
...................
................**.
................**.
.........*.........
........***........
......***.**.......
........*.***......
..........**.......
......*****........
........**.........
...................
...................
...................
...................

Generation = 36, Population = 18.
...................
................**.
.........*......**.
.........**........
.........***.......
...........**......
...........***.....
...........**......
...........*.......
...................
...................
...................
...................
...................

Generation = 38, Population = 18.
...................
................**.
.........**.....**.
........*..*.......
............*......
............**.....
............***....
..........*..*.....
...........**......
...................
...................
...................
...................
...................

Generation = 40, Population = 17.
...................
................**.
.........*.*....**.
.........*.........
.............*.....
..........**..*....
.............***...
...........***.....
...................
...................
...................
...................
...................
...................

Generation = 42, Population = 18.
...................
................**.
................**.
.........***.......
...........*.......
...........*.......
...........****....
...........***.....
............**.....
...................
...................
...................
...................
...................

Generation = 44, Population = 12.
...................
................**.
..........**....**.
..........*.*......
...................
..........*..*.....
..........**.......
...................
...................
...................
...................
...................
...................
...................

Generation = 46, Population = 11.
...................
................**.
..........**....**.
..........*........
...........*.......
............*......
..........**.......
...................
...................
...................
...................
...................
...................
...................

Generation = 48, Population = 12.
...................
................**.
..........**....**.
..........*........
..........**.......
..........*.*......
...........*.......
...................
...................
...................
...................
...................
...................
...................

Generation = 50, Population = 13.
...................
................**.
..........*.....**.
.........*.*.......
.........***.......
.........**........
...........*.......
...................
...................
...................
...................
...................
...................
...................

*** Life<ConwayCell> 3x6 ***

Generation = 0, Population = 5.
....*.
*.*.*.
...*..

Generation = 13, Population = 0.
......
......
......

Generation = 26, Population = 0.
......
......
......

Generation = 39, Population = 0.
......
......
......

*** Life<ConwayCell> 10x5 ***

Generation = 0, Population = 16.
.*.**
.***.
..*.*
..*..
.....
..*.*
...*.
.*.*.
*.*..
.....

Generation = 12, Population = 8.
.....
.....
.....
.....
.....
.....
.....
.....
**.**
**.**

Generation = 24, Population = 8.
.....
.....
.....
.....
.....
.....
.....
.....
**.**
**.**

*** Life<ConwayCell> 1x8 ***

Generation = 0, Population = 4.
*.**...*

Generation = 6, Population = 0.
........

Generation = 12, Population = 0.
........

*** Life<ConwayCell> 8x19 ***

Generation = 0, Population = 14.
...................
.**.....*..*.......
................*..
............*......
.......**.......*..
..........*.....*..
..*.*......*.......
...................

Generation = 5, Population = 0.
...................
...................
...................
...................
...................
...................
...................
...................

Generation = 10, Population = 0.
...................
...................
...................
...................
...................
...................
...................
...................

*** Life<ConwayCell> 12x3 ***

Generation = 0, Population = 21.
***
**.
.**
..*
***
*..
*.*
..*
.*.
**.
.*.
*.*

Generation = 9, Population = 4.
...
...
...
...
...
...
...
...
**.
**.
...
...

Generation = 18, Population = 4.
...
...
...
...
...
...
...
...
**.
**.
...
...
