*** Life<FredkinCell> 4x8 ***

Generation = 0, Population = 32.
00000000
00000000
00000000
00000000

Generation = 40, Population = 16.
++----++
+-7--7-+
+-7--7-+
++----++

Generation = 80, Population = 16.
-++--++-
-+-++-+-
-+-++-+-
-++--++-

Generation = 120, Population = 20.
-++--++-
++-++-++
++-++-++
-++--++-

Generation = 160, Population = 16.
+--++--+
--++++--
--++++--
+--++--+

Generation = 200, Population = 24.
++++++++
++----++
++----++
++++++++

Generation = 240, Population = 20.
++-++-++
--++++--
--++++--
++-++-++

Generation = 280, Population = 12.
++----++
-+----+-
-+----+-
++----++

Generation = 320, Population = 16.
+-+--+-+
++----++
++----++
+-+--+-+

*** Life<FredkinCell> 30x12 ***

Generation = 0, Population = 118.
0-0--------0
-0----------
0-0--0---0-0
-0---0------
--000----0--
0----0----0-
--0---000---
-----0-0--0-
---0---00---
-0---000--0-
000----00-0-
--00---0--00
00---000-0--
---0-00--0--
--0--0-00000
-0---0-0---0
-00-0-0-----
0------0---0
-----0---0--
------------
00--00----0-
----0-0-----
--0000-0-0--
0-0-0----00-
0----00-0-0-
-0-0----000-
--0------000
----0--00--0
0-0--00-----
-0-0--00----

Generation = 120, Population = 186.
+++--+--+-+-
+---+--+-++-
+-+++--+-+++
+---+----+-+
+-++-+--++--
-++--+-+---+
--+++++---+-
++---+++++-+
-++--++----+
++++----++++
-+----+-+++-
+++++-++++++
-+++++--++-+
-++--+++++++
++++++-++-++
-+++--++++--
+------++--+
++++++++--++
+++--++-----
-+--+--++++-
++--+-+--+++
++---+----+-
+---++-+-+--
+-+-+++--++-
-+--+--++-++
+---------+-
+----+--+--+
++-+---+----
++----+----+
+++++----+-+

Generation = 240, Population = 180.
+++++---+++-
+-+--+--+++-
--++++--++--
+----++-+++-
-+-+-++-++++
--+-+---++-+
--+-+--+-+++
+-+------+-+
++-+--+----+
+++-+-+--+--
-++++++--+-+
+++---++-+--
+++---+++-+-
+-+-++-+++--
+-+-+-++---+
+-----+-+-+-
--++--++++-+
--++-++---+-
-+--++-+--+-
+-+-++---+-+
-+++---+---+
----+-+--+--
-++++-+-+++-
+++----++--+
+---++++-+-+
++++----+---
-++-+--+--++
--++-+--+-+-
+-+++---++++
+--+--+--+++

Generation = 360, Population = 192.
-+--++-++-+-
++-+---++-++
-++-++---+-+
+---++-+-+--
-+--++++-+++
+--++-++--+-
+-+----++-++
+++++-+----+
-+-+----+-+-
+---++-++-++
-+-++-+++-+-
+-++-+--++++
+--++-++++++
+-+--++-+---
---+++--++-+
+++--++---++
+-++--+-++++
+--+--++-++-
---++++--+--
--++-+++-+--
++-+++-++-+-
---+---+--+-
--++---+++-+
+++--+++++++
-++-++--+-+-
----+++-++--
---+++--+-++
-+-+-+--++--
--+-+-++-++-
-++++--++++-

*** Life<FredkinCell> 37x34 ***

Generation = 0, Population = 97.
----------------------------------
---0------------------------------
----------------0---0---0---------
------0---------------------------
-------0--------------------------
----------------------------------
----------------0-----------------
0--------------0-----0-----0------
--------------------0--0----0-----
--------------0-----0----0--------
----------0-----------------------
----0-----------------------------
-------------------------00----0--
------0-0------0------------------
--------------0-----------------0-
----------------0-0-------0-------
----00---00-------0------0--------
--00------------------------------
----0-----0-----------------------
0-0----------------0----0---------
------------0-0------------------0
-----------0-0---0-00----------0--
---------0----------------------0-
--0---------------------------0---
----------------------------------
---------00--00-----------------0-
-----------0----------------0-0---
0-----0--------------0------------
-0-------0----------0-------0-----
---------------------------------0
------------00--------------------
---0-------0------------0--------0
-----------------0---------------0
-0----0----0---0----0-------------
0------0-----00-----------------0-
----------0---0--0----0-----------
---------0------0-----------------

*** Life<FredkinCell> 10x30 ***

Generation = 0, Population = 78.
0-0--00-----0---------0-0----0
--0--0-0------0-0--0----0--0--
--------0-000-0-0-0-0--00-00-0
-------0--0----0-0----0------0
-0--0----00------------00-----
--0-00------0----0-0----0--0--
--0------00----0--------0-0---
--------0-------0----0--0-0-0-
00-0-----00--0-----000----0---
0-----------------000--0--00--

*** Life<FredkinCell> 30x15 ***

Generation = 0, Population = 100.
-0----00-------
-------000-----
0--000---0---0-
0-----0-------0
----0----------
-0--0---0------
--0-0----------
-0-0------0-00-
---------------
0--------------
--0-00---0-000-
0---------0-0--
---------------
-00--0-0---0---
-0--0-0---0----
-------0-0-----
--------0----0-
-----0------0--
-----0--0---0-0
---00--0-0-0--0
----0------0-0-
0-----0-----00-
---0-0-----0---
0---------0----
0-0-00-0-------
--00-0-----0---
0--0--0----0-0-
0--00-0------0-
--0---00-0-0---
--------0---0--

Generation = 102, Population = 208.
---++++---++++-
-+++--+--------
-+++---+---++++
+--++--+--++---
+++---+------++
-+-+-+---+++--+
-++-+++++-+--++
-+-++----++-++-
------++-+++++-
-+---+-+-++-+-+
-+----+---++--+
---+------++--+
-+-++-+++-+++-+
+++++++--+--+-+
++--+---++-----
++-+-+--+++-+++
--+-++++-++----
-+-+--++++++-++
-+----++----+-+
--+++++++---+--
-++--+--++-+++-
+-+++-++-----+-
-----+++-+----+
--++--+-----+-+
----+-+--+-+---
------++--+-+++
+++-----++-+--+
-+--++-+--++-++
---+--+-+-+-++-
-++-+++-+---++-

*** Life<FredkinCell> 50x47 ***

Generation = 0, Population = 157.
-------0-----0---------0---------0-------0-----
-----------------------------------------------
--------------------------0--0-----------------
-----------0-----------0----------0--------0---
0-0-----------0---0-------------------------0--
---------------------------0-------------------
----------------------0------------------------
-----------------------------------------------
----------------------------00-------0---------
-0------------00----------------------------0--
---------0-----------------00--0---------------
----------0--0--------0-----------------------0
----------00-0-0---------0---------0-----------
-----------------0-----------------0-----------
------------0-0----0--------0---------------0--
-------------------------0---------------0-----
-----------------------------------------------
--------------------------0--------------------
0--------------0-------0-------0---------------
------------------0-0-------------0----00---0--
-----------------------------------0---------00
0----------------------------------------------
--0--------------0----000---0------------------
-------------------00------00------------------
------0------------------0-------0-------0-----
---------0---------0-0----0--------------------
------------------0-------0--------------------
--------------0--------------------------------
------00-----------------0----------------0----
-------------0----0-----0-----------------0----
0---------0--------------0--------------------0
00-------------------------0-------------------
-----0----------0------------------------0-----
-------------0----------0--0--------0----------
------------------------------------------0----
---0---------0-----------------0-0-----0-------
--------0-------------0------00--------------0-
--0------------0--------------0---------------0
---------------------0------0------------------
---------00-----------------0-----0------------
---0-------------------------------------------
------0-----------------------0----------0-----
------0---0--------------00---------0-0-0------
-------0-----0-0---------0-----0---------------
---------------0-------------------------------
--0-------------00-----------------0-----------
-------0--------------0--0---0-----------------
-----------------------------------------0-----
------------------0---------0------------------
----------0----------------------------------0-

Generation = 43, Population = 1183.
--+8-348--8-+--8--488699-++7--7---+--8-6-7-7+++
-559--6+7-4-----7++------6--98-+7---718-4-----6
9-6564++-5-+86---+8---+--8+----+-+7--+-5+93-8-7
5------87--+7-+---+--2-59-----7-6---+--6---5-3-
9763---+---74---4-84----9-9-6-5---9--36---+-8--
-+---+5+---+3+-+--+-2-+-37------44+-44-75+-8+--
--+89--8-4-86+--3------7+7---++--7++-4++---7+-+
654--9---8--59--79++--+---++8--9-4---628--7--+4
+-5-4--+58-+--6-28---+--4-+--89-6+--5+--+--8++-
55-----8-7--67--+--+8-+62---+69-6-+-76-5---87-+
-+-6-6+--89-9--+++---+---+-2--3----+-+9+6+---5-
-+-+7+-6-++3-8+----5--9---+-+----------55--+-+2
+++-8-+--+8+67-+-----+78--------3--6-9-+6---+6-
------99--984--+-26+7+-++--4+8-7+--+5-5+--96+-+
83+-2----++-++--6----8------4854--8+87-3-95--+-
-876----4-4-----++898-+---++--9--6-8-83-5-2---4
----66-+6-7+---96-+-+-67-+-8-6-58-95-63-65-6-65
-+-7776--+++--7-+++71+52--4--96+-5----588+9----
-4-+886---3-+-9-+---6-++-634-7---78++-----39+-+
+-+1+894+7-++++-+-83---69-8-+-7+----+6-++-5+--3
--5-6--9--+878--+97+-97-5-56-5+8---85-+-9--+89-
76+--2766-++9-+-+865895-7------9-6+-+---88--+-6
8-+59-+---+9---9+-9--6+++3--+-++--8+-+----9+--+
437---1---8++-+7--+-+-83--5----7--++---9+-8-++-
---++---+-8--4--+-----6+-+-6--+7+---7+-5-9--77-
-+---9-+8---7-6+--69-+9---++76-74++---92-+8-659
62989--688-6--9++++-98+6-++68+--+--+-874+-9---6
---8-3++-6+-+-+----++-------9-+9+-+-76+665-5+--
--5-++-8---7--+8----+-+6-9+--++-7-6+--9+9-----7
+--8--57+--69--9-7---797--+99+8-9+++---+-+-448+
+-+5---+9-++--+-8-7-89-+-68-++++48--6++--++-+--
+---+7798+-69976------86--85--+-7-88-+56----+3-
5--39994-++65-8-++---9-+8+97---6++---7-8--+--57
---+6-+-+-6+-+--88++--6--7+9+-----5534+9---+--6
-76-6--55-634-4---7488-+------96-3-------482---
5+-8-+--9-++---58-+---+-6+8-7--8-5--+-65+------
-+7+---6+5--5-957998+--5-658+-9+9--+-5---1++--3
+---7-786-8-7---+-8----886++--+3--9-7------6-9+
-9-9+-+--++-++-8-9+966-+---+--5---+-+29--7-6---
--+-66--7+87-+++--7-++5+-+-++7-6+8+-755-4++---+
5---3-+--+-7---66+--4-++9-7-+9+-6---8--5-+--8-4
+78--+8+7-+-2-++-6+--9--+--+-9--7-++--3-7-+--9-
-5+-+6-9++---9-+-+7++46++-+---+-8+-+-78------8-
------5+4++85+---+-899---+9-++------9-6-5-57---
----6778-4-+9-3--66-97--5-5+-6---3-++-5--5+948-
-+-+4+-9+4+9+--+-+--+-------75+-+7-6+-8+6-778-+
---67-6-----++---+-8-+--+73----8---+-+--+-55-9-
-6--9--9------9+-56+--6--8+--+++5+7-94-49-53--+
-3+--6-54+----57--55-+-98-----766+--86-6-4-67--
-3-6----8-+-4+-7+--+7-+386-86++7-----6--6-7--69

Generation = 86, Population = 1196.
-+--+----+----++-+-+-++-+-+--+++++++---+++-+---
-------+++---++-+-+-++-9-+++---++--++--+----+-+
+-++------+-+-++-+-++++++---+--+--+--+-+-++----
++-+++--+-+--++--++-+----++++------++++---+----
++----+--++-8+++9+++--++-++---++---+---+--+--++
++-+++-++-++-+--+--++-+++--++-++-+-+--7-++---++
+-++-9+-+++++--+-+----+++-----+-+--+-+---+--+-+
+++---++-+-+-++-++++-6--+-----+++---+--+-+----+
-+-+8-+++-+-++-+9+--+++++++7-+--++--+-+--++-+++
+++++++--+-++--------+--9+-++-++-++-+--+--+--++
-+++--+++--+-+++--+-+--++-+++++--9-+++--+--++-+
-++++--+-++++-+--++++--++++-++++-+-+++-+--++++-
--++++----+-+-------+++-++++-+-+-++-+--+----+++
-+---+---++-++----+---++----++---++-+++-+-++-+-
+-+-+--++-+-+++--++++-+++--+++-+---++-+++-+--++
+-+++++8-------+-++--+++----+++---7+-+-+--++--+
++7-+++++-++----+--+-+-++-++++-+---+---+--+-+-+
+----+++--++---+++++-++-+++++-+++++----+--+-+++
---++----+------++++-+-++--+-+++--+--+++------+
-+++-++++--+++-+-++++-++-+--++--+-+-++---+-++-+
+-+--+--+--+-+----++-+++--++++--++--++++----+++
++++-++-----++-----+-+--+---++--++-++++--++-+-+
---+-++-++--++--+---+++++-++----+--+-+-+++--+-+
+++---9-----+-+++--++-++-+-+-++++-+---+--++-++-
+8--+++++-+-++---+-8+-+-+--+-+---+--++-++-++--+
+--++-+--+-----++++++-+++++-++-+++-+--++-+-+-+-
++--+-----+9---++-++-++----+-++-++++--++-++++++
---+--++--+-+-++--+------++-+-+++-----+-+--9+++
+-+----+--+++++++--+-+-+-+--++++-++-+---+-+-+-+
+---+-++--+--+---++----++--+-+-+--+-+++-+--+-++
-++--++--+--+--+-+-+------+-++-+-----+++-++++++
+-+--+--+-+-++--+-+-+6+--++9+---++++---++--++--
--+++++-+--++-++++-+-++-+++++-++---+-+---+-9+--
+-+--+-+--+-+-++-----+---+--++--++-+++--++----+
-++--+--++++-++-+-+-+--+--++++-+++--+9-+-++-+--
++++8++----+++----+--++---++----++--+-+-++---++
+++--++8+++---+++------++--++++-+-+-+8--++--++-
-----+-++-++-+---++-++++-+-++-+--+--+--+++++--+
--+--+--+-+-++-+--+++-+-+--+++-++-----+-++++-+-
++++-++-+++-----++-+-++---+-+++++-++-+--+-+---+
++--++--++--+--++-----+++-++-++--+--+-+--+-+---
-++-+--+++--++++++-------+-+--+--+-+++--++-++--
++-++-+++-+++++---+-+--++--+----+++++-------+--
+----+++-++++-+--++++-+----+---+--+--+-++-+-++-
++++-+--+-+-++-++--++++-++-+-+++-8++-+---+-+++-
-+-+--+-+++--++-++++-+-------+++-+++++---+-----
-++7+----+++-+-+++++-----++----+--++++-++----+-
++-++---+--++----++---+++++-++-++--+--++----+--
---++++-+------+-+++--+++-9-+--+-+---++-++--+++
-++----++++--+++-+--++-+---++++-+++---+++----+-

Generation = 129, Population = 1067.
+-+--+++--+---+-+++------++---+-+-+-----+-+-+-+
--+-+----+---+-+---++-+-+--+--------+----++--+-
-+----+-+--+-++-+--++++-+++--+--+-++-+-+-++----
+++++--++-----+-+-++--+-++-+-++-+++++-+-++-+-++
--++---+-+---+-+---++-----+-+-------+---+-+---+
++--++--+-+----+-++--+-+-++---++++--+-++---++-+
+--++-++-+---++++++-+-+---+---+-+-+++----++-+--
+++-----+---+-+++--------++++--+-+++-+--+++----
+++-+-+-----+--++-+------+-+-+-++++++--+---+--+
-+++++--+--+-++++----++-+++--+++++-+--+--+--+--
-+--+--+++-+++++----++++-+-++++-+++-+--+-+-++-+
-+++-+-++++++---+--++++--+-+--+-----++-+-++--++
---+--+-+-++---+---+++--+----++----+--+-++-+--+
----++--++--++--++-++--+-+++++-+-++--+----+----
--+-+++-+--++++--+---++---+--+--++++-+---+++-++
+--+++-+++-+++++----+-+--+++------+--+----+-+++
-+--+-+----+-++------+--+-+-++-+---+-++-----+--
---+-+-++-+-+---+-----+-++--++-+---++-+++------
----+-+---+--+-++++--++--+-+++++++-++-+-+-+-+--
+-++--+++--+-+-+-+-+-++++++-+-+++-+-+--+-+--++-
--+++-++--+++-++-+-+-++++--++---+-++-----++-++-
+--+--+-+-+-+---++------++++-+-----+--++-----+-
-++--++-++--+-+--+-+---+-+-++---+--+-++-+-+-+++
---++++-+++-+-----+--+-++-+-------++++-++-++-++
+--+-----+--+-+-----++-+++--+-+-+--+-++++------
-+-++---+--+------+-+++-+---++-----++-+---+-+-+
---++++-+++-+++-++-+-++-+--+-+--+-++++--+++---+
----++----+-++-+-++-+-+-+++-+----+--+++++++-++-
--+-+-+-+++-+------++-++--++------++++++++-++++
++++-+---+--++--++++-+-+-++---+-+++++++----++++
--+-+--+--+++++-----++-+-+-+--+++-+-+----+-++--
+---++--+++-+-++--+-+++-+-+--++-++----+-+-+-+-+
----++--++++-----+--++++--+--+-+++-++----------
--+-+++--+----+-+-+-+++--++++--+--+--+++--+-+--
--++---+--++--++---+-+-+--+----+--+-+----+--+--
++-+--+-+--+--++-++-++--+-+-+--+--++++-----++++
-+------+-+-++++-++-++----++++--++++--------++-
++++-----++-++++-------+-+---++++++------+---+-
+++----++-++--+--+--+-+++-+-++--+-+-+--+++--+-+
----+---++++-+-++-+-++---+--+----++++-+----+++-
+--+-----+-+---+-++------++--+-+++-+--++-++--+-
-+----+---+-----+--+----+-++---+-+--+++++++-+--
-+-----------+-----+-+----++---++--+-+--+-++-+-
+++-+---+-+---+-+-+-+--++--++-+++----++-+++-+--
++-+-+---+-+--++-+--+-+++---+-+++----+--+-+-+++
-++-+++++-+--+-+---+-+-+-+++++-+-+-+-++---+-+++
--++++--+-----------+++-+-+++---+---------++---
-----+++--+-++-+-++-+---+++-+----+++-+-++-+-+++
+----------+--+-+-++-++-+-++++---+-+------++-+-
--------+-+---+-++--+--+++---+----+------+-++--

Generation = 172, Population = 1190.
+-------+--+-+--+-----++-+++-+-+--++---++-+++--
+--+-+++++-----+-++-++++--+--+---+-+--++-----++
+++---+-----+-----++-++-++++--++-++------++-++-
--+-+--+--+++--+--+-+++-+++--+---+------+-+++--
+----++---+-+--+----+-+-+-++-++---+++----+-++-+
+-+++++-+-+-++-+-+-++-+----+---+++---+++--+--+-
--+++-+---+++-++-----+-+---+-+-+-+++++------+++
-++++---++-++-+++++-+---+-+++---++---++---+----
--+--+-+----++-+-+++--++++-++-++++++++++-------
++-++---++-++-+-+-+++-+--+-+++++---++++--+-+++-
-+++--+--+++-+---++++--+-+++-+-+---++-+-+++++-+
--+-++-++--+++-+--+++++-+-+--++-++-+-+-++-+-+--
-++---+-++---+-+---+-++--+++-+++++-+---+----+-+
-+-++-+---+-++-+-++-++++-++-+-+++-++-+++--+++--
-+++--+++---+++-+---+---+--+-++-+---+++-+------
+-----++++++++++---++----+-++----+------+-++--+
++-++-----++-+--+--+-+--++-+-+++----+--++++++++
++-++--+-++++++++++-++++++-++++-+-++-+-+-+-+-+-
++++++++---+----+-++-++-++-++---+-++--+----+-++
---++++--+++-++-----+--++++-+-----+++-+++---+++
-+-+++-++++--++++++-++-----+++++-+-----+-----++
-+++-++---++++------+--+++-+++-+--++-+++------+
----++++++-++-++--+--++++--------+-+-----++----
-+-+++-+---+-+--++----++--+-+----++-+++-+----++
+--++-----+-++++++-+-+-+-+----+-++-+++--+---+++
-++--+--+++++---++---++-+--++++-+-+-+-++-+-+---
++-+--++-+--++---++++-+---++---++-----++++++-++
---+--+++++--++++-+--++--+---+--+-++++++--++-++
--+++-+-+++-++---++++--+++--++-++----++++-++-++
++---+-++-+++++--+--++-----+---+++-+++--++++++-
-++-+-+-+-++-+--+-+-+--++-+---++---++---+--++-+
+-++--+--+-+-++--+-+-----+-+---++--++-++-+-++--
--++----+---+----++-++-++-+++-++++++-----+--+-+
-++-++--+--+---+--++-+++++--+--+++----+-+-++--+
--++++--+---+--+-+++-+--+--+-++-+++--++-++--+--
+--+--+-+++++-++--+--++-++++++++-+++-+++---+---
+-++---+-+---+-+--+------++-+---+--+-+--+--+---
++++--+-+-++-++++-++----+-+------+-++-++-+-++-+
-+++-++---+++-++----+---++++++++++---+----+-++-
-++++---+++--++--+-+-++-+-++-+-+-------++--+-++
-+++---++--+-+-+++++--+++-++--++-++---+--+---++
-+++++--+---++---+---+++--+------+-++++++-+-++-
++---+---++-+--++--+-++-+--++--+--+--++--+---++
---+-+-+++-+++-+-++++---+-+-----+---++-+++-+-++
----+----++--+---+----+--+-++-+-+++-++-+--+-+++
++-+-+-+---++-++++++-+-++++++-+--+++++--++-++-+
++++-+--++-++++++++---++-++-++++--+--++++--+--+
++-++-----+-++----+++-+--+--+++-++-+++-----+--+
+--++----++-++---+--+--++++++++-+--+++++++-----
+---+++-+++++-+--+-++++-+-+-+-+----+-+---+-+++-

Generation = 215, Population = 1194.
---+--+---++++-----+++-++-+----+++-++-+-++---++
-+-+++-+++-+++++---+-+--+---++--+-++-+---+++-++
---+-------++-+--+--+-+----++++-++---++-----+-+
-++++++-++-++--+++--+--+++-++-++-+-----++++-+--
+++++++-+--++-++-+-++-++-----++--++-++++-+++--+
---+--+-++-++---++--+++-+-+--+++-+++++++++--++-
-++----++++-----++---+-+++++-+++-++------++++++
-++-+--+-+-+-+-+---+-+++-+--++++-+--+--++--+-+-
+----+-++----+-++-++-+-----++-++--++-+++---+++-
+----+--+++++-+++----+++++-+-+---+-+--++++++--+
++--+-+-+-+----+-+--+++-++-+---++++--++-+-+-+++
-+-++---++--+-----++--+-+++--++-----++---++--++
--+++-+----+++-----+-+-++--+--+-+-+-+-+++----++
+-+++--+--++---+----+--+++--+-+++-+++-++--+---+
-----++-+++--+-++--+-+-+--+-++-+++-++---+--+-+-
+--++-+--+--+-++-+--+----+--+-++----+--++-+----
++-++--+-+-+-++---+----+----+++--++------++++--
--++-++---++-+++-+--+++++-+--+++-++-++-+----++-
-+--+-+--+++++---+--+-++-++++-+++++-+-+---++--+
---+-+--++++-+-+-++-++---+----+++-++++-++++++--
+++----+-+--+++--+-+-++-+--+++-++-+++++-+++++--
---------+---+-++-++---++-+-+-----+----+--++++-
+++++++-+-+++++--+---++--+----+-+-+++++-------+
-+-+--++++---+-------+-+-++--++-+-+++++-+-+++++
-+--++++++-++-+++-+-++++----+--+--++-+--+-+++--
++++-++-+-++++---+-+----+++++----++--+--++++-+-
+++++-+-+-+++--++++-+---+-----+-+-+-+-++-+--+--
+-+--+--+-++-+++++-+++-++-+----+-+----+++-+-++-
+-+-++-++---+++++--+-+-+-+----+----++-----++++-
+-----+--+-+-+++-+---+-++----+-+---++++----++-+
+++++-+++++----+----++--++---+----++-++-+-+++-+
+++++-+-++---++--+++-+-+++-+------+-+++-+++--++
-+--+--+++-+--++----++-----++--+++-+-+-+++---++
+--++--+++-+-+++-++-+--++++++++-++-+--+--+++-+-
+-++++++-+++--+--+-++++---+--++-++-++-+-+--+-+-
++++--+++++--+--+-+++++-+++-------++++---++--+-
-+--++++++++-++++-+++++---++---++++-+++++--+++-
-++---+-+-+++-+-+---++-++++-++--++----+---+++++
--+--+-----++-+--++++--++++++--+-+++----+--+-+-
++--+--------++----++----++-++-++++++-+++++++--
+-+---+++-+---++------++-+-+-+++-+--++-++-++-++
+-+-+-+----+---+++---+-++--+-+-+--+-+++-----++-
+-+-++-+-++-+-+-++-----++++-+----++-+++--+++--+
++------++++----+++++----++---+-+-----+-+--++++
+------+--++-+---+++-+--+--+-++----+--+--+-+---
-+--+--++---+-+--+--+++-++++-++++++++--+--+++++
--+-+-++-+++++-+++-+--+++----+----++-+-++++-+++
+-+++-------+--++-++++-++------+--+---+--+-+-++
-+--++-++-----+----++++-+--+-+-+-----+--++-++++
-+-+--+++-+-++--++++--+++++++++-+++------------

Generation = 258, Population = 1092.
---+++-+---+---+++--+-+---++--++-+--+------+-+-
-------++--++---++----------+------+-----+-+---
-+++-++--------+-+---++-+++-----+--+--+-----+++
--++-+-+--+---+-++++-----++---++-+-----+-+-+---
-+--+++++++--+++++----+++----+-+-++-+-+---+-+--
++--+-+--+----+++-++---+-+-+++++-+-+---+---+---
-+++++-+----++-++++---++++++-++-+++---------+-+
--+++++++-+++--+--+----+-+-+--+++-+----+-+-+--+
+++--++++-+-+--+--------+++-----+---+-+-+++----
--+-+-+-++-++-+---+------+++--++--+++--+++++++-
+++-+-+-+-+----+-+-++++----++---+++---+++-+----
+-+-+--+++-+++++-+++--+---++-+++--+-+-++++++-++
-+-+-++++-++++-++-+-++-+++++----+------++-++--+
+-++++--+-+--++++---++--++-+--+-+-+++--+++++++-
+--++-+-++---+-+++++-++-+----+++----++--+-+--+-
+-++++-----+-+-+---+--++++++--+---+--++--+---++
+-++-+--+-+++-++--+---+--+---+-++-+-----+++--+-
-++--+++++++-+-+-----+-+--+-+--+-+--++-+----+--
--+---+-+++-+-----+----+----+++-+++--+-+---++--
++++-++-+++++-++--+-+++-+----+--+-------------+
-+--++-+++++-+++---+-----++-+++++-----+--++--+-
++-+---+++--++++---+++-++--+--+-+--+----+-++---
-+-+++++-+-+-+++-++-++-+-+--+++--+--+------++-+
++---+-+++----+-++++++-+--++--+--+---+--++++++-
------+----+++--+++++--+----+----+----++-+++++-
+--+--+---++-++-+-+-+++-++-+-++----+--+--+++-++
++------++----++-+++---+--++++++-++---+--+++-+-
--+-+-+---+++-+---+-+++--+-++++---+-+-+++--++++
--++-++++-----+-++++-----++-+--++----+-++-++-+-
--+++-----+-+-++--+-+-----+++++--+++-+++-++++-+
---+-+-+-++-++-++---+--+-----++++-+--++-+--+-++
++-+++----+-+---+---+-+-++-+--+--+--+-+++-----+
--+--+-+--++-+-+-+---+-+-+-+++++++---+-+--+--+-
--+++++++------+--+++----++---+++-++++---+--++-
-+-------+-++-+-+-++---+--+-+-++++-+-+----+-+--
+---+++--++--++++----+++-+--+--++++---++-+---++
+--+--+-++-+++--+----+-++++------+---+---++-+-+
+-+----++-++---+++++-+++++++++-+++--++----+--+-
-+--+-----+---+----+--++--++++++-+--+--+---++--
-+-+----++++---+--++++-+--+-+-+-+-+++-+++-+++-+
--+--++++-+--+-+----+----++-------+-++++-++----
++++-+-+--+++-+-+--+++----+++-++----++-+++--++-
+-+++-+++++---++--------+-+++++---+++++--------
++-----+-+-+-----+-+---++---+---++-+-+++-+--+++
++--+-+-----+++--++-+--++---+----+--+++++---+-+
-+----------++--++-------+++--++--+--+-+-+--+-+
+-+-+-+---+--+++--+-++++++++++---++--+++------+
---+---+-+---++--+-+++---+--+---+---+----+++--+
-++-+---++++---+--+--+-+++++++--++-+++--+-+++-+
---------+---+---+++++++----------+-----+-+++--

Generation = 301, Population = 1175.
----+--+-----+++++--++--++--++++-+--+-+--+++-++
-++-+++-+++--+++++----++-++--+++--++---++--++++
---++-++----++---+--+--+--++----+---------++++-
--+++-++-++--+--+++--+-+--+++--+++++-----+-++--
-----++++++--++++++---+--+--+-+++---+-+--+----+
++++++-+++---+-+---+--+-+-+-+-+---++-++-++--+--
+----++-+--+-+--++-++-+-++++-++--+++++-+------+
+++++--+++---+-+-+++++-+++++++--+-+--+----+-++-
+-++++---+-+--+-++-++-++---++-+-+++-+-++-+--+++
+-+---++---++--+-+--++--++-+-+-+-+++--+-+--++-+
-----+--+-++-+-+-+--+-++-+-++-+-+++-----++-++--
+-+-+----+-++-+--+++++++++-+--------++-++++--+-
++---++-+-++++--+-++------+--++++-+-+-++-----+-
+++++++-+++-++-+++++++--+++-++-+--+--+----+----
----+++--+-+++--++----++--+-+-------+-++-++-+--
+-+-+----+--+-+-++-+-+---++---+----++--+-+-+--+
+--+++-++--+++-------+-+----++--++-+-++-+---+--
++------++++++++--+-+---+-+-++---+++-++++-++-+-
-++--++-++--+-++-++--++++--+-+--++++--+--++-+++
+-++-+--+-++---+----+---+--+-+-+--+++-+-+-+-+++
--+-+---++-+++++-+-----++---+--+--+-+-+-+-+++++
++-+----+-+--++-----+++-++-++--++-++-+---+--+--
+-+-+----+++---+--+--+----++-++-+-++----++-+++-
-++---+++++-+-+-++-++---+++-+++++-+----+----+-+
-+-+-+++-++-+-+--------++-+------++++++--+--+-+
+--++++++--+---+--+-+--++--+--------++--+-++++-
--+--+-+++-----++++-++++--+++++++-+---+++---+++
-+---+++++---++++-++-++++++++---+-+---++++--+-+
---+--++--+++++--++-++--+--+--+-+---+---++--+-+
+--+--+-+---+--+-+-+--++++-++++-----+--+-++-+--
--+----++-----++----++-+-++-++-+++++-++-+-+-+--
++++--+-+++-+++--+-+--++-----+++-+--+-+--++++++
++++-+-+-+-+--+-++---+-+--+++--+-+++-+-++++++-+
-++--++++--+++++++--++------+-+++++-+++-++-+-+-
--+++---++---+--+-+-++++-----+-+-+++++++++-+---
+--++-+++++---+++----+--+----+---++-+++------+-
+--------+--+--+++++++---++-++--+-+---++-+-++++
----+++-+-+++--+++++--+-+---+----+-++--++---+--
+-+++-+---+---+-+---+-++++--+++--++-+--++----+-
--++---++-++---+----+++----+--+--++++-+-+++++-+
---+++---+-----++--+-----+-++-++++-+----++++-++
-++--+---++++-----+--+-+-+--++-++--++----++++--
++-+--+++-----+-+--+--+-+--+--++-+-+++++--+++++
+--+++++++----+-+--++-++-+++--+-+++---+--+--++-
----+-+-+--+-+-+-+++-+-----++++----++-++--++-+-
-+-+++-++-+--+---++-+++-+-+++++----+-+-+-++++-+
-+--+--++--++-+-+---++-++-+---++-++-+--++-+--++
+----+-+--++++++++----+--++-+-++++-++-----+-+++
++++++--+++-+-+--++-++++-----++-+++--++-+-+-+-+
++++---+-+-++---++--+++++++++-+------++++-----+

*** Life<FredkinCell> 2x4 ***

Generation = 0, Population = 8.
0000
0000

Generation = 83, Population = 4.
+--+
+--+

*** Life<FredkinCell> 11x43 ***

Generation = 0, Population = 34.
---0-----------0---------------------------
------------------0-0--0----------0--0-----
-0----------------------0--0---------00----
---0----------------------0---0---0--------
--------------------------------0-----0----
-0---0-------0---0----0--0----------0---0--
--------------------0-----0----------------
----------0--------------0---------------0-
----0-----------0--------------------------
----------------------------------------0--
-------------------------------------------

Generation = 34, Population = 228.
--7+725------455----+-7-+0+-6-5-4--6--76-6-
--9--+--9567+-97--9---84--4-8+5-72+69------
3--+681+------2---556-3-2696884-+-7-14+58--
--6---75--+-2-9--53---47+8---6875---5---+6-
5-4986--5-4---8+-73-5-4-95656-5-8+82+-965--
4---775+-46666--7-++-76+7-7-86-76--44-3--+-
5--8-34-3---63-++56-1-7-9-1+--6-8----+-----
-5-57-------7--4-------3-------454--6--3657
---7-6----6-55-+-52---3-3--95---7---+87-7--
-----794-2-49+----+4+8+9+--+-3--9-748--4-7-
-+------------32----3-6-7184-35-+-+31+37---

Generation = 68, Population = 191.
-+---------+5+-++---+++----+---++----++----
6-+-++--+-+-+++-6---+--+++--++----++++-+++-
--5++----+9----+--++-----+++---+----------+
+++----+----9-+8-8---++-+++-+--+----+++-++-
-+-+-++9--8-9--++--+---5--+++--9-+-----++7+
--------+++-+++-++-+--++++++++----+---8++--
-6-+---5+--++7+----+9+-----+----+--+-++----
-+++-+--+-+--+8-6+-+-----+++++--+++-+++----
--+----++-++----+--+----+-----------+-+---+
+----+---7----+-+7-+++--+-6+--+-++----+---+
-+--+++---------+-8----+--+-6--+-7------++8

Generation = 102, Population = 234.
++-----+-+-+--+-+-++--++-6-----++++-++-++++
----+++++-++++-----+-+--+--+-+---+--+++---+
++++++-+-+++-++--++++--++-+-++--+-++--+---+
---++++-++-+--+-+-++-+--++-+-+--+++--+-+--+
++-++-++---+-+--+--++-++---++---++-+++++---
+++-+--+-++---+--+++--+--+-+-----+-++-++++-
--++---8+-+--+++--+--+-+----++-++++++--+--+
+-+---+7+---+---+----++9+---++--+--+-+++++-
+------++++++-++-+++-+-+-8+++7+-+2+-+++-++-
+---+-++++--+++--------+++---+-+-----+-+-+-
-----+------++----+7-++-+-+++-++-++9-------

Generation = 136, Population = 172.
--+-+---+---+--++-----+++--++-++-------+--+
-+--+--+-+---++++++--++++++--+++-++--+----+
-+-+-++--+-+----++-+--+-+--+-+--++---++--+-
+-+-+------+------+-+-+-+--++-+----+--+---+
+----+-----+------------+--+-++-+--+--+-+--
-++--+---+----+-+++-----+-+----+-++---+-+-+
--+----++-++---++-+-+-+-+-+-+-++---+------+
--+--+---++--+---++-+----+---+-------+---++
-------+---+--++------+---+-+-++---++-+---+
-++-++--++---+--+----++-+++-+-+++++-+-+-++-
-----++----+----+-----+----+-+-----+----+--

Generation = 170, Population = 242.
-++-+----++++-+-++-+-+-++-++-++++---++-+--+
--+-++-+++--++++-++-+-++--+-+++--++-+-+---+
++-+++----++-++++---++-+---++-+++++-+-+-+++
++--+++---+----------+---++---++--+--++-+++
++----+-++++------+--+++++-+--+++---++---+-
-+--+-++-++-----+-++-+-+-+++--++--++-+++++-
-+----++++++--+++--+-+-+-----++---+----++--
+-+-++-++-+++++-----+++-++++++---++++++---+
-9-----++++++--+--++++-++----+----+---++---
++-++-+--++---+++-+--+-++++++-+++----++--+-
++---+---+----+-+-+--+-++++--+-++-++-++--++

Generation = 204, Population = 201.
-+--++-++-----+-------+-+---++-+-----++++--
--+-+-+---++-++---+++++++++-++++--+---+----
--++-+----++++------+-----+--------+++---+-
++---+--+-+-+++++++--+--+------+-----+-++--
+--++-++-+++-++++---+----+-----++-++-++++-+
+-+-+-+--+++----+++----++++-+--+-+-+----+++
++-+++++---+---++----------++++-+--+-+--+--
---+++-----+-+----+-+++--++---+-++++-----++
---+--+++---+--+--+-+---+--+----+-+---+-+--
++---+-----+++---++-+---+++-+++---++-----++
+---+-+--++-+++++-+-+----+------+-+--++++-+

Generation = 238, Population = 256.
+-+-----+++-+++-+--+--+--+-++-----+-++-++--
+++--+-+++-+-+-+---++---++-+-+++-++-+-+++++
+-++----+++-+++++++--+++----+++-+-+-+----+-
+---++++----+-++-++-+-+---+---++-+-+++--++-
----+-+++++-+++---++--+++-+--+++++++----+--
-+------+-+-+---++----+-+++-+----+++++++-++
++--+-++-++-+---+-++--+++++-++--+--+----+-+
-+-+-+-++-+-+--+-+++--+--+++-+-++-++++-+--+
+-++-++---+-++++-++-+--+-+-++++-+-+++++++-+
----++++----+-++---+-++++---++++++--+---+--
---++++-+++-++++++++++++-++++-++-+--+---+++

*** Life<FredkinCell> 16x44 ***

Generation = 0, Population = 102.
-0-------0-----0------0-----------------00--
-------0----------0--------0-0-0-----------0
--0--------0------00---0--0---0----0-0------
--------------------------------0----0-0----
0-0-00-0------0--0--0-----------0-----------
--0------0----0-----0---0---0-0-------------
-------0------------0-----------00--00-00---
------0-00-----0-0---------------0-----0---0
---0-0---------0--------0----0----0---------
--0---0--0---------------0----------0-------
-0--------0-0---------0-----------------0---
--00---------------0------0-------------0---
---------------------------0--0-0-------0---
00---------0-0----0-----0---0-----------0---
0--0--0-----0-----------0-------------0000--
----------------00--0-----------0-----------

*** Life<FredkinCell> 3x23 ***

Generation = 0, Population = 9.
-------------0-0---0--0
------00-0-----------0-
--0--------------------

Generation = 43, Population = 36.
9---+2---9+++-30--+0---
----++7+7-7+--8+7--9-9-
2280+---7-3+-2-03-+---2

Generation = 86, Population = 37.
++---5+0-+---+--+-----+
-+++-+++-+++-++-+-+-+-+
-5+-++5-+--+-4-0--+1+4-

Generation = 129, Population = 34.
+---+7-08-+-+-8---+--++
-+-+---++++++--+-++-+++
-------0+8-+-7---+-1-77

Generation = 172, Population = 25.
-+-0---0-++++----++-++-
-++-++---+++-----+++---
+-----+-+-----+--------

Generation = 215, Population = 41.
+--0+-+--+-+++-0+++-+++
-+++++--+----++++-+++++
+--0++-0---+-++--+--++-

Generation = 258, Population = 30.
----++---++++-----+0---
-----+++-+++-------++-+
-+-0--+-+-+++-+0+++-+--

Generation = 301, Population = 34.
+++--++---++++--+--0+++
--++++-+--+---+-+-++-+-
--+-+-----++-+-0-++1---

*** Life<FredkinCell> 42x5 ***

Generation = 0, Population = 88.
0-0-0
---0-
000--
0--00
-0---
-0-0-
-00--
0-000
----0
--00-
--0--
0---0
---0-
--0-0
-00--
0--00
-00-0
0---0
0--0-
0-000
--0-0
--0-0
-0---
---00
---0-
-0---
0---0
-00--
00-0-
0-0-0
--0--
0--0-
---00
-0-0-
00-00
0---0
0----
00---
00-00
00---
0-00-
-----

Generation = 29, Population = 101.
-----
6---5
8----
+455-
-----
-988-
---6-
7---9
---9-
6+-+-
5---2
+6-75
33+--
38---
----7
6-57+
9+-+9
-----
-5---
7+-44
7----
78+5+
--8+-
-372-
7--+8
-7499
---3-
79-41
+6-89
6-+47
687--
-+--3
----+
3--3-
---92
-7---
792-5
7--5-
--75-
36-36
-7+6-
-5+--

Generation = 58, Population = 102.
++-9-
--+-+
++-8+
+9---
+-+--
---9-
-+8--
+--9+
+-+--
-----
--+-+
+++--
-+--+
5++++
8+-++
-+-+-
-+-++
++++-
++--+
+-+-+
-++-+
++--+
--+-9
--+-+
-++-+
----+
--+--
---+8
+-4+-
++++-
--+--
++-+-
+----
-+--+
+--+-
+-+-+
+-+88
+-+--
---++
-----
+-+-+
-++-+

Generation = 87, Population = 111.
+-+--
-++++
--+--
--+-+
++--+
-+--+
+++-+
--++-
-++--
--++-
-+---
---+-
-+---
+-+--
+---+
+-++-
+++--
+--++
+-++-
+-+++
++--+
+-+-+
---++
-+++-
-++++
++--+
-+-++
++-+-
-+6+-
++-+-
--+-+
++--+
--+-+
-+-++
+++-+
++---
+++--
-++-+
-++++
---++
+-+++
-++--

Generation = 116, Population = 108.
-++++
+-+--
-+---
-++++
++-++
--+-+
++-++
-+++-
-----
---++
+---+
---+-
+--++
++++-
+--++
-+-+-
++---
+++--
-+++-
--+++
--++-
----+
++-++
-+--+
+++-+
+--+-
+++--
+-+-+
+-+-+
--+++
-----
++-+-
-+---
-++--
+--++
++++-
---++
---++
+-+++
+++--
-+--+
-++-+

Generation = 145, Population = 110.
+----
-++--
-+---
-+-+-
+++++
-++-+
++---
-+-+-
-----
+-++-
+-+-+
++---
--++-
--+++
-++++
+----
--+++
-+-+-
+---+
++-++
-+-+-
+++-+
+----
-++--
++---
-++++
+-+++
+++++
-+-+-
-+-+-
---++
+++--
+-+-+
+++-+
+-+++
-++-+
-++--
--+++
--++-
-++-+
++---
++-++

Generation = 174, Population = 110.
--+-+
++---
-++-+
+--++
-+--+
-+---
++++-
-+-++
-+++-
++-+-
+--+-
--+-+
+++-+
-++-+
+-+-+
---+-
+--+-
---++
++-++
-----
---+-
+++++
+----
++-++
+++-+
-----
-+-+-
+++--
+++++
++++-
++--+
-+++-
-+-++
---++
+++++
-+--+
--++-
++---
++-+-
+-+--
-++-+
+--+-

Generation = 203, Population = 125.
-++++
-+-++
+-+-+
+--+-
-++++
--+++
--+-+
+-+-+
++++-
-++-+
-++++
--+++
-++-+
-++--
+-+++
-++--
-++-+
++-++
++-++
++++-
-+---
+-+++
--++-
+++++
--++-
---++
+-+-+
+-+--
+-+++
---++
-+-++
----+
-++++
+-+++
-++--
+++++
-++--
+++++
--++-
----+
-+--+
+++--

Generation = 232, Population = 110.
-+--+
+-+++
++++-
-+-++
++-++
+-+--
-+-+-
-++-+
---+-
-+-++
++--+
----+
-+-++
+--++
+++-+
-+--+
-+-++
-+--+
-+++-
+--++
+----
+-+++
++--+
+--++
++-+-
++++-
-+-+-
+---+
--+--
++-+-
-+-+-
----+
--++-
+--+-
--+--
+++-+
+-+++
--+++
-+-+-
---+-
+++-+
-++-+

*** Life<FredkinCell> 23x27 ***

Generation = 0, Population = 74.
--------0--0--------0--0---
-0---0------0----------0---
--0------------0-----0-----
-----------------0---------
----------------00--0------
--0------------------0-----
-0-----0------------0------
---0-----0-0---------------
0-00------------00-----0---
----0---------------0-0-0--
---0000--0----------------0
-0-0-0---------------------
------------0-----0-------0
-0-----------0-00---0-----0
-----00-0------------0-----
---0----0--0---0-----------
----0---------------0----0-
--------00-0---------------
---------------------------
0------------------0-------
------------0----0-0----0--
--------0------------------
---0------------------0----

Generation = 143, Population = 320.
--+--++--+-++-+--++++-----+
-+++------+-+-++++-+--+----
+-+++++++++-++-+++-++--+---
---+---+-+--+++++-+--+--+--
-+---+-+++-+---+-+-+--+--+-
+--------++-+-+++++++--++--
-+--++-+++++--++-+-+++++--+
+-++++-+-+-+-+-+--+-+++----
-++++--++-++-++++--+------+
--+--+--+++--+++++-+-++-+++
--+-------+-+-++++++--+-+-+
-+-+++--+-+-+--++-+--++-+--
--++-+++--+-++---++-+---+++
--+-+--+-+--+++--++--+++--+
--+++++-+-+-++--++-+-----++
------+++--+--++-++-++---+-
--+-+--+++-----++-++++--++-
--+--++-++------+++--++-+--
-+++--++--+++-+++--+++-++-+
++-++--+--+---++--++-+++--+
+++-+--+++++++----+-+-+-+++
++++-++--+-+---++--++++++-+
-+-+-++--+++-+-+++-+-++-+++

Generation = 286, Population = 323.
++-----+-+++-+-+-+++++--++-
+++----++-++-+-+-+-+-++++-+
+++-+-+--+++-+---+--++-++--
--++--+---+-+---+---+-+--++
++-++-++---+-+-+-++++---++-
++++---+++-+++-+-+--++--++-
--+-+++--++--+--+-+-----+++
-+--+--++---+++-+++-----+--
++--++-+-+-+-+++---+-----++
+--+-+-+++---+-+--+--++-+++
+++---++---+++----+-+++-+--
+-+++-++-++-+--++-++-+----+
-+--+--+++++-++--+-+---+-+-
------+-+++-++-+++--+-++-+-
+++++++-+--++--+++-++-+++++
++++-+-+-+++-+-+++---+++-+-
-+---+--+-+--+-+++--+--+---
+++++-+++++--++---++-++-+--
++-++-++--++-+++++---+--+--
-+++-------++--+++--+--+++-
+-+++++-+-+++++-----+++----
-+++---+---+-+++--+---+++++
+--++----+++------++++-+-++

*** Life<FredkinCell> 46x14 ***

Generation = 0, Population = 146.
00--------00--
0---0---00---0
0-0---00-00---
0------0------
-0--0----0--00
-----------0--
0-0-00---0-0--
---0----------
00-----0------
---0-0------0-
----0---0----0
----0-00-----0
-0--------0---
------------0-
-0--0--0------
---00--0-----0
----0-0--0----
00-----0-0----
----0---------
0-0-----0----0
-0----0-0---0-
-0------00--0-
------000-----
------0---0---
000------0----
---0----0-----
---0--0--0----
--0---------0-
0-----0-0-0--0
-----0--------
0---0------0-0
-----000----00
---------0----
-----------00-
-----0-0------
-------00--0--
----0---000---
0-0-----------
-0-------0----
--0--0-0---0--
-------0-00-00
0--0---------0
-000-------0--
0--0--------0-
-0----0----000
-0----------0-

Generation = 34, Population = 339.
-++7-68---+---
--8+-----++---
--++--+--6-5-6
+-----96637-29
9-+7-5--+3-+1+
+---9--885--+7
+6-88---7+8-+-
4-+----+--5--6
88-85967+42--+
++--9-36+-7--+
9-6---7---+--8
-86++-+--9+5--
-4-5--5--+-679
5-------95896-
6----9-9---51-
-7---+++7---+9
4-4--+----6--9
---7-69--87++-
-8+8+7535-8-9-
-8+-+57++4----
99-+-+--464-+-
+---+--4+--79+
---5--+7+-5---
--6-+-966---+-
-6-5796-+--+-4
4-6+978--9-4+-
5--9-95+++8899
7387+86998---+
84+-5+--5--++-
88--6+---7-868
8+-3---9+9-+--
-8-8-+49++--8-
-+87----912---
+----8+-+7-7+-
6546--6-7-7-5-
-++75--+654--+
+--59+8----34-
2+689-----6--8
-6-+8-89-+7---
++5+788-8++-+4
97-+9-8-----8+
6-19-4-9876-+7
---6----38---+
736-+-47+-86+-
4-----9---+--9
-------++-94-+
