*** Life<Cell> 13x31 ***

Generation = 0, Population = 31.
-0--0-00-----0-0---------0-----
--------------------0---------0
--0---------0-0----------0-----
------0-----------------------0
------0---0--------------------
------0-0-----------------0----
-----------0-------------0-----
------------0------------------
---------------0---------------
------0--------0--0--00--------
-------------------0-----------
---------------------0---------
-------------------------------

Generation = 47, Population = 76.
........***....................
.......**.*-..........*........
.**...**...*.........*.*.......
*..*****....*.......*...*.***.-
.....*.**..*.......**..*.....**
**.**...***.........***...**.**
**.**................*.-.......
.*.*.............-.............
.****..............**.-........
*..*...-.-.........**..........
.........................*...*.
........................*...**.
-.......................-*****.

Generation = 94, Population = 26.
..*..........................**
.*.*..........................*
.*.*..........................*
..*..........................**
..............**...**..........
..............**...**..........
.......................-.......
...............................
...............................
.......-.-..........*..........
...................*.*.........
...................*.*.........
-...................*..........

Generation = 141, Population = 26.
..*..........................**
.*.*..........................*
.*.*..........................*
..*..........................**
..............**...**..........
..............**...**..........
.......................-.......
...............................
...............................
.......-.-..........*..........
...................*.*.........
...................*.*.........
-...................*..........

Generation = 188, Population = 26.
..*..........................**
.*.*..........................*
.*.*..........................*
..*..........................**
..............**...**..........
..............**...**..........
.......................-.......
...............................
...............................
.......-.-..........*..........
...................*.*.........
...................*.*.........
-...................*..........

*** Life<Cell> 1x25 ***

Generation = 0, Population = 4.
-----0--0----0---0-------

Generation = 34, Population = 3.
...-.-....-..1-1-..---0--

Generation = 68, Population = 3.
...-.-....-..1---..---0-0

Generation = 102, Population = 2.
...-.-....-..--1-..-1----

Generation = 136, Population = 3.
...-.-....-..1-1-..-----0

Generation = 170, Population = 4.
...-.-....-..1---..-1-0-0

Generation = 204, Population = 3.
...-.-....-..--1-..-1---0

Generation = 238, Population = 4.
...-.-....-..1-1-..-1-0--

Generation = 272, Population = 2.
...-.-....-..1---..---0--

Generation = 306, Population = 3.
...-.-....-..--1-..---0-0

Generation = 340, Population = 3.
...-.-....-..1-1-..-1----

Generation = 374, Population = 2.
...-.-....-..1---..-----0

*** Life<Cell> 9x16 ***

Generation = 0, Population = 9.
---------0-----0
--------0-------
---0------------
--------------0-
----------------
-------0--------
----0-----------
---------0-----0
----------------

*** Life<Cell> 29x18 ***

Generation = 0, Population = 154.
--0000-0--0----0--
0-0----00-----0-00
-------0----0-----
--00-----00-00---0
-----0-0---00--00-
--0-0------00----0
------0-----------
---000-0---0---0-0
0-00-----0-----000
0-0--00-0-----0---
--0-0--00--0------
-----00-00--------
0----0---00----0--
-0------0-0-0-----
--0------00---00--
00--------------00
0----000-----0----
000----0-00----0--
-0--0----0------0-
00-0------00-----0
0------0----0-00--
-0---------0-0----
--0--0-0---------0
--------0----0-00-
-----0----0-00000-
---0---00-0--000-0
0------0-00-------
-0---0----0000--00
---00000-0-0------

Generation = 24, Population = 131.
..-.**..-.........
.......*.-**1....-
.......*..**......
....**.*..**....-.
.....*....*.....-.
...*....**........
......*.*.1.......
.*.***...**.......
**.---..........--
*.*.*....*........
....*....*.....*..
*........*.*..***.
.0......**..*.**.*
........*.........
...0...*..*.....*.
-.**..-**.**..***.
.*..*..*..*..-***.
...**...*...**....
..**1...**........
....-...**.......-
.......*..*.......
.......*..........
-**.**....*....*..
*..*.-*.*.1..**.*.
****.**.**..*0....
.*.....***..*..*..
.**......**...*..1
.*........**...**.
.........-..****-.

Generation = 48, Population = 86.
..-...............
.................-
...**.............
...**...........-.
................-.
..................
..................
.*.*..............
*..*............**
*...*..........*.*
.**......***...*.*
..**.....*.*....*.
.........***......
..................
..................
-.................
..............*...
**..*........*.*..
**.**.......*..*..
*.***..**....**...
..***..**..***....
.***.*............
.*...**...........
.*****.........**.
..**..........*.*.
..............**..
.**.**...........-
.*...*............
..***....-......-.

Generation = 72, Population = 59.
..-...............
.................-
...**.............
...**...*.......-.
........*.......-.
......**.*........
..................
..................
..**..............
......*...........
..**..*...........
..***.............
..**..............
..................
..................
-.................
..................
..................
..................
..................
.....*........*...
....*....*...***..
........*.*.***.*.
............*...**
.....*.***......**
.....************.
......**.....***.-
..................
.........-......-.

Generation = 96, Population = 33.
..-...............
.................-
..................
........**......-.
........**......-.
..................
..................
..................
..................
..................
..................
..................
..................
..................
..................
-.................
..................
..................
..................
..............**..
..............**..
..................
.***..............
.****.............
.....*............
....***....**.....
.....*.....**....-
.****......**.....
.***.....-......-.

Generation = 120, Population = 14.
..-...............
.................-
..................
........**......-.
........**......-.
..................
..................
..................
..................
..................
..................
..................
..................
..................
..................
-.................
..................
..................
..................
..............**..
..............**..
..................
..................
..................
..................
...........**.....
..........*..*...-
...........**.....
.........-......-.

Generation = 144, Population = 14.
..-...............
.................-
..................
........**......-.
........**......-.
..................
..................
..................
..................
..................
..................
..................
..................
..................
..................
-.................
..................
..................
..................
..............**..
..............**..
..................
..................
..................
..................
...........**.....
..........*..*...-
...........**.....
.........-......-.

Generation = 168, Population = 14.
..-...............
.................-
..................
........**......-.
........**......-.
..................
..................
..................
..................
..................
..................
..................
..................
..................
..................
-.................
..................
..................
..................
..............**..
..............**..
..................
..................
..................
..................
...........**.....
..........*..*...-
...........**.....
.........-......-.

Generation = 192, Population = 14.
..-...............
.................-
..................
........**......-.
........**......-.
..................
..................
..................
..................
..................
..................
..................
..................
..................
..................
-.................
..................
..................
..................
..............**..
..............**..
..................
..................
..................
..................
...........**.....
..........*..*...-
...........**.....
.........-......-.

Generation = 216, Population = 14.
..-...............
.................-
..................
........**......-.
........**......-.
..................
..................
..................
..................
..................
..................
..................
..................
..................
..................
-.................
..................
..................
..................
..............**..
..............**..
..................
..................
..................
..................
...........**.....
..........*..*...-
...........**.....
.........-......-.

Generation = 240, Population = 14.
..-...............
.................-
..................
........**......-.
........**......-.
..................
..................
..................
..................
..................
..................
..................
..................
..................
..................
-.................
..................
..................
..................
..............**..
..............**..
..................
..................
..................
..................
...........**.....
..........*..*...-
...........**.....
.........-......-.

Generation = 264, Population = 14.
..-...............
.................-
..................
........**......-.
........**......-.
..................
..................
..................
..................
..................
..................
..................
..................
..................
..................
-.................
..................
..................
..................
..............**..
..............**..
..................
..................
..................
..................
...........**.....
..........*..*...-
...........**.....
.........-......-.

Generation = 288, Population = 14.
..-...............
.................-
..................
........**......-.
........**......-.
..................
..................
..................
..................
..................
..................
..................
..................
..................
..................
-.................
..................
..................
..................
..............**..
..............**..
..................
..................
..................
..................
...........**.....
..........*..*...-
...........**.....
.........-......-.

Generation = 312, Population = 14.
..-...............
.................-
..................
........**......-.
........**......-.
..................
..................
..................
..................
..................
..................
..................
..................
..................
..................
-.................
..................
..................
..................
..............**..
..............**..
..................
..................
..................
..................
...........**.....
..........*..*...-
...........**.....
.........-......-.

Generation = 336, Population = 14.
..-...............
.................-
..................
........**......-.
........**......-.
..................
..................
..................
..................
..................
..................
..................
..................
..................
..................
-.................
..................
..................
..................
..............**..
..............**..
..................
..................
..................
..................
...........**.....
..........*..*...-
...........**.....
.........-......-.

Generation = 360, Population = 14.
..-...............
.................-
..................
........**......-.
........**......-.
..................
..................
..................
..................
..................
..................
..................
..................
..................
..................
-.................
..................
..................
..................
..............**..
..............**..
..................
..................
..................
..................
...........**.....
..........*..*...-
...........**.....
.........-......-.

Generation = 384, Population = 14.
..-...............
.................-
..................
........**......-.
........**......-.
..................
..................
..................
..................
..................
..................
..................
..................
..................
..................
-.................
..................
..................
..................
..............**..
..............**..
..................
..................
..................
..................
...........**.....
..........*..*...-
...........**.....
.........-......-.

*** Life<Cell> 5x15 ***

Generation = 0, Population = 27.
0--00-0-0-0----
-0---0-0---0---
-00-----0--0-00
0---0-00-0-----
--0----0-0-00-0

*** Life<Cell> 47x27 ***

Generation = 0, Population = 104.
---0-0---------00-0--------
-----0---------------0-----
-----------------0---------
-----------0-----------0---
----0----------------------
------0-----------0--------
---0--------0---0----------
---00---------0--------0--0
----------------------0----
----0----------------0-----
--------0------------------
-----0-------------0-------
-----0-0-------------------
-----------------0---------
------------------00------0
------0--------------------
-0-------------------------
----0----------------0-----
------------0------------0-
------------0--------------
-------------00-------0-0-0
------------00-------------
---------------------------
--------------0------------
---0-----------------------
--0-----------0------------
---------0--0---------0--0-
---0-------------0---------
-------------0-------------
---------------------------
--00-------0-------0-------
-----------------0---------
--0--------------0-0--0----
---0-----------------------
-----0-----00--------------
--------------------0------
---0------0---0------------
-----0----------0--0-------
-0--------------0--0-0-----
----------------0-----0-0--
--------------0---0-0------
---0------0---------0------
---------------------------
------------0--00--------0-
-0------0------0-00--------
--------------------00-----
------0----------0---------

Generation = 67, Population = 115.
...........................
.......................**..
......................*.**.
......................*...*
.......................***.
.............-..........*..
...............-...........
.*.....................*...
.***.......-..........****1
.*..*................*.***.
..*..................*.****
..**..................***..
...*..............*........
..*...............**.......
..................*.*......
...................**.*....
....................***....
.....................*.....
...........................
...............***.........
.........-.................
.....*.....................
.....*..**.................
-...*.....*..............-.
.....**.**.................
......****.................
.......*...................
...........................
...........................
...........................
..................**.......
.................*.**......
................**.........
...............*.*.........
..............**...........
.............*...**........
..-.........*..**..........
.............**............
.....***............**.....
..-..***...........*..*...-
....*...............*.*....
.....***.............*.....
......**......*...........-
.....*......**.............
...***.....................
...........................
...........................

Generation = 134, Population = 125.
....*.*....................
....*......................
........................*..
.....**.................*..
........................*..
**...........-....**....*..
...............-.*..*..*.*.
..................**.......
...........-...........***.
......**...................
......**...................
......................**...
.....................*..*..
..***................*.....
.**..*................*.**.
.**..*.....................
.*.........................
..**.....................**
................*......*..*
................*......*.*.
................*......***.
...........................
...........................
.........................-.
....*.*....................
....****...................
....*****..................
.......***.................
....**.**..................
......*....................
.*.........................
*..*........*..............
...**......*.*.............
...***.....*..*............
****.*......**.............
....**.....................
.....*.....................
....***.....*..............
.***.*.....*.*.............
.****.......**............-
..**.......................
...........................
..........................-
.....................**....
.......*.............**....
........*..................
.......*...................

Generation = 201, Population = 148.
...........................
...........................
....**.....................
....**................**...
.....................*..*..
.............-..***...**...
...........................
...........................
...........-...............
...........................
...........................
...........................
...........................
...........................
....**.....................
....**..................**.
.......................*..*
....................*...*.*
................***.*....*.
...............*...........
...............*..*........
................**.*.......
.........*........*.*......
.........***......**.*.....
..*....**...*........**....
.*..***.**..........***....
....*...**.**..............
.*...**...*....***...*.....
..*.**..***..........*.**..
....*....**..........*..*..
....................*...*..
...............**.*..***.*.
...**...........***...*...*
.......**.*......*....*...*
.......**.*............*..*
.........*.............***.
...............**..........
.*............*..*.........
*..............*.*.........
*.*.............*.........-
*.**..*....................
.**.***....................
..........................-
......*..............**....
......**.............**....
....*.**...................
.....*.....................

Generation = 268, Population = 40.
...........................
...........................
....**.....................
....**................**...
.................*...*..*..
.............-...*....**...
.................*.........
...........................
...........-...............
...........................
...........................
...........................
...........................
...........................
...........................
...........................
...........................
.**........................
*.*........................
..*........................
..*........................
..*........................
......***..................
.*..**.....................
.*.....*...................
..*...**.*.................
...*....**.................
........................*..
......................*.*..
.......................**..
...........................
...........................
...........................
...........................
...........................
...........................
...........................
...........................
...........................
...........................
...........................
...........................
..........................-
...........................
...........................
...........................
...........................

*** Life<Cell> 17x5 ***

Generation = 0, Population = 58.
000--
0-000
0-0--
--00-
0000-
00-00
000--
-0-00
0-000
-0000
00000
00-0-
-0-00
0000-
000--
--00-
00000

Generation = 155, Population = 0.
.....
.....
.....
.....
.....
.....
.....
.....
.....
.....
.....
.....
.....
.....
.....
.....
.....

*** Life<Cell> 50x4 ***

Generation = 0, Population = 92.
0-00
0--0
-00-
---0
---0
000-
0-00
-0--
0-00
00-0
0000
--00
0--0
0--0
----
-00-
-00-
0---
0--0
0---
00--
00--
0-00
---0
-000
---0
--0-
---0
-000
---0
-0-0
0000
----
---0
000-
---0
----
---0
--00
-00-
00-0
00--
----
-0--
-000
00-0
-0--
0-0-
---0
--00

Generation = 33, Population = 16.
.**.
.**.
....
....
....
.**.
.**.
-..-
.-..
....
....
....
....
....
....
....
.**.
.**.
....
....
....
....
....
....
....
....
....
....
....
....
...-
....
....
....
....
....
....
....
....
-...
....
....
....
-...
....
....
....
....
..**
..**

Generation = 66, Population = 16.
.**.
.**.
....
....
....
.**.
.**.
-..-
.-..
....
....
....
....
....
....
....
.**.
.**.
....
....
....
....
....
....
....
....
....
....
....
....
...-
....
....
....
....
....
....
....
....
-...
....
....
....
-...
....
....
....
....
..**
..**

Generation = 99, Population = 16.
.**.
.**.
....
....
....
.**.
.**.
-..-
.-..
....
....
....
....
....
....
....
.**.
.**.
....
....
....
....
....
....
....
....
....
....
....
....
...-
....
....
....
....
....
....
....
....
-...
....
....
....
-...
....
....
....
....
..**
..**

Generation = 132, Population = 16.
.**.
.**.
....
....
....
.**.
.**.
-..-
.-..
....
....
....
....
....
....
....
.**.
.**.
....
....
....
....
....
....
....
....
....
....
....
....
...-
....
....
....
....
....
....
....
....
-...
....
....
....
-...
....
....
....
....
..**
..**

Generation = 165, Population = 16.
.**.
.**.
....
....
....
.**.
.**.
-..-
.-..
....
....
....
....
....
....
....
.**.
.**.
....
....
....
....
....
....
....
....
....
....
....
....
...-
....
....
....
....
....
....
....
....
-...
....
....
....
-...
....
....
....
....
..**
..**

Generation = 198, Population = 16.
.**.
.**.
....
....
....
.**.
.**.
-..-
.-..
....
....
....
....
....
....
....
.**.
.**.
....
....
....
....
....
....
....
....
....
....
....
....
...-
....
....
....
....
....
....
....
....
-...
....
....
....
-...
....
....
....
....
..**
..**

Generation = 231, Population = 16.
.**.
.**.
....
....
....
.**.
.**.
-..-
.-..
....
....
....
....
....
....
....
.**.
.**.
....
....
....
....
....
....
....
....
....
....
....
....
...-
....
....
....
....
....
....
....
....
-...
....
....
....
-...
....
....
....
....
..**
..**

Generation = 264, Population = 16.
.**.
.**.
....
....
....
.**.
.**.
-..-
.-..
....
....
....
....
....
....
....
.**.
.**.
....
....
....
....
....
....
....
....
....
....
....
....
...-
....
....
....
....
....
....
....
....
-...
....
....
....
-...
....
....
....
....
..**
..**

Generation = 297, Population = 16.
.**.
.**.
....
....
....
.**.
.**.
-..-
.-..
....
....
....
....
....
....
....
.**.
.**.
....
....
....
....
....
....
....
....
....
....
....
....
...-
....
....
....
....
....
....
....
....
-...
....
....
....
-...
....
....
....
....
..**
..**

Generation = 330, Population = 16.
.**.
.**.
....
....
....
.**.
.**.
-..-
.-..
....
....
....
....
....
....
....
.**.
.**.
....
....
....
....
....
....
....
....
....
....
....
....
...-
....
....
....
....
....
....
....
....
-...
....
....
....
-...
....
....
....
....
..**
..**

Generation = 363, Population = 16.
.**.
.**.
....
....
....
.**.
.**.
-..-
.-..
....
....
....
....
....
....
....
.**.
.**.
....
....
....
....
....
....
....
....
....
....
....
....
...-
....
....
....
....
....
....
....
....
-...
....
....
....
-...
....
....
....
....
..**
..**

*** Life<Cell> 38x36 ***

Generation = 0, Population = 123.
----00---0-0-----------0---------0--
-----0-00-------------------0------0
--------------0-------0-------------
----0----0------00-----00-----------
0-0-0----0---0--------0----000-----0
--0------0---------------0------0---
--------0-----------0---------------
----------------0-------------------
-0------------------0-0------0------
----0---------0-----------------0---
------------------------------------
----------------------0--0---------0
-------0--------0----0--------00----
0--------------------------0--------
----0------------------0-0-0-------0
------------------------------------
0--------0--0-----------------------
---0------0----------------------00-
-0------------------------------0---
0------------0--------------0-------
-0-----0--------0-0----0------------
-----------------------0----------0-
0-----------0------------------0----
----------------------0----------0--
--------0-0---------0--------------0
-------------0----0-0-0-------------
-000----0---------0-----------------
----------0----------------0--------
-0--------------------------0------0
---0------------------------------0-
----0--0--0-0-0----------0----------
-------0--------0----------0--------
----------------------------------0-
-0------------------------0---------
------------0--------------0----0---
--------------0-----0---------------
------------------------------------
-----------------------0-0--0-----0-

Generation = 91, Population = 85.
....................................
......*.............................
.....*.*............................
......**............................
................-...................
....................................
....................................
....................................
.....**.............................
....***.............................
..**................................
..***.................-.............
..*..*..............................
.**.*..*............................
....*.*.............................
.....*..............................
.............................-......
...................-................
.........................-...-.-....
....................................
......................-...*.....-...
.....................-..**.**.......
........**.............*...**.......
.......*.*.............*..*.**......
........*...............*.....*.....
............................**......
............................*......-
....................................
..............**..........**.***....
..............**.......**.......*..-
........................*.......*...
.............................***.**.
.................................*.*
.........................*.........*
...................**....**.*...*.**
..................*..*.....**...**..
...................**...............
...................................-

Generation = 182, Population = 73.
....................................
....................................
......**............................
......**............................
................-...................
....................................
....................................
....................................
....................................
....................................
....................................
......................-.............
....................................
....................................
....................................
........................*...........
........................*...........
...................-....*...........
...............................-....
....................................
.....**...............-.........-...
....*.*..............-..*...........
....**.................**...........
..**..................**...**.......
.*.*.....**...............*.*....**.
.**.....*.*...............**........
........**.............*.....******.
......**...............**..***......
.....*.*...............**..*....*...
.....**........................*.*..
..............................**.**.
..............................*.....
...................**.........**....
...................**...............
....................................
....................................
....................................
....................................

Generation = 273, Population = 61.
....................................
....................................
......**............................
......**............................
................-...................
....................................
....................................
....................................
....................................
....................................
....................................
......................-.............
....................................
....................................
....................................
........................**..........
.................*......**..........
................*.*.................
................*.*............-....
.................*..................
.....**.........................-...
....*.*.........*...................
....**.........*.*........*.........
..**...........*.*.......*.*........
.*.*.....**.....*........*.*........
.**.....*.*...............*.........
........**..........................
......**............................
.....*.*..........................*.
.....**..........................*.*
..................................**
....................................
....................................
....................................
.........................*..........
........................*.*.........
........................*.*.........
.........................*..........

*** Life<Cell> 47x10 ***

Generation = 0, Population = 134.
----------
0---------
00-0--0---
--0-0--0--
------0--0
-00---0--0
-00-----00
--000----0
-------00-
----------
--000---0-
-0-0--0--0
--0---0---
---0--000-
---0---0-0
---0000---
-0--0---0-
---00-----
-------0--
0-0-------
0------00-
---000-0--
--000-0000
000---0--0
---00-----
----0-0---
-------0-0
0--0------
0---0-00--
0-00-0-0-0
--------00
-00-0-----
----0---0-
0-----0---
-0-0--0---
---------0
----0--0-0
--0------0
---0------
---0------
0--0---0--
--0-----00
000-----0-
--0---0-0-
-0---0000-
-0-0---00-
0-0-------

Generation = 17, Population = 150.
*********.
..-*.....*
*.***....*
..**.**.*1
*.*.*..-..
*.*..*.*..
.*..*1....
...-*-..1.
.....*..1.
-*..**.**.
***.....*-
-..**.....
...**-....
..1.......
-.*-......
**-.....-.
.*.-1.....
*.*..*....
*.*-**....
*..***1.1.
*....*-**-
*....*.**.
-..*..*.*.
*-.*.1.**.
..-*..-*-.
0.-..1..**
-....**-..
.....-....
..**......
...*...***
...*.*1..*
***..*..**
0***....*.
..0.*..*..
-.*.......
1****.**..
-.**....*.
**........
---...*...
..*.-.*...
*.-..-....
*.*......*
*.*...-.**
*...*....*
*.*.*.....
..*.*-....
..01......

Generation = 34, Population = 65.
.*****....
*...*.*.**
*.*.*.*.**
*.*.*.*.**
.*...***..
..........
..........
..........
....*.....
***.*.....
***......-
..........
......*...
.....***..
....*..**.
...***....
..........
...**.....
.......*..
.......**.
**........
*.........
*.*.......
.**.......
........-.
-.........
-......-..
..........
..........
..........
..........
..........
-.........
..-.......
**........
**........
..........
..........
..-.......
....-.....
..-.....**
.......*.*
........*.
..........
..........
.....-....
..-.......

Generation = 51, Population = 56.
......**..
.....*..*.
......**..
..........
.**.......
*..*......
.*.*......
..*.......
........*.
.......*..
....*...*.
.*.******.
.*.....**.
..****...*
....*..***
..........
..........
......*...
..........
....***...
**........
*.........
*.*.......
.**.......
........-.
-.........
-......-..
..........
..........
..........
..........
..........
-.........
..-.......
**........
**........
..........
..........
..-.......
....-.....
..-.....**
.......*.*
........*.
..........
..........
.....-....
..-.......

Generation = 68, Population = 34.
......**..
.....*..*.
......**..
..........
.**.......
*..*......
.*.*......
..*.......
..........
..........
..........
.**.......
.*.*......
..*.......
..........
..........
..........
..........
..........
..........
**........
*.........
*.*.......
.**.......
........-.
-.........
-......-..
..........
..........
..........
..........
..........
-.........
..-.......
**........
**........
..........
..........
..-.......
....-.....
..-.....**
.......*.*
........*.
..........
..........
.....-....
..-.......

Generation = 85, Population = 34.
......**..
.....*..*.
......**..
..........
.**.......
*..*......
.*.*......
..*.......
..........
..........
..........
.**.......
.*.*......
..*.......
..........
..........
..........
..........
..........
..........
**........
*.........
*.*.......
.**.......
........-.
-.........
-......-..
..........
..........
..........
..........
..........
-.........
..-.......
**........
**........
..........
..........
..-.......
....-.....
..-.....**
.......*.*
........*.
..........
..........
.....-....
..-.......

Generation = 102, Population = 34.
......**..
.....*..*.
......**..
..........
.**.......
*..*......
.*.*......
..*.......
..........
..........
..........
.**.......
.*.*......
..*.......
..........
..........
..........
..........
..........
..........
**........
*.........
*.*.......
.**.......
........-.
-.........
-......-..
..........
..........
..........
..........
..........
-.........
..-.......
**........
**........
..........
..........
..-.......
....-.....
..-.....**
.......*.*
........*.
..........
..........
.....-....
..-.......

Generation = 119, Population = 34.
......**..
.....*..*.
......**..
..........
.**.......
*..*......
.*.*......
..*.......
..........
..........
..........
.**.......
.*.*......
..*.......
..........
..........
..........
..........
..........
..........
**........
*.........
*.*.......
.**.......
........-.
-.........
-......-..
..........
..........
..........
..........
..........
-.........
..-.......
**........
**........
..........
..........
..-.......
....-.....
..-.....**
.......*.*
........*.
..........
..........
.....-....
..-.......

Generation = 136, Population = 34.
......**..
.....*..*.
......**..
..........
.**.......
*..*......
.*.*......
..*.......
..........
..........
..........
.**.......
.*.*......
..*.......
..........
..........
..........
..........
..........
..........
**........
*.........
*.*.......
.**.......
........-.
-.........
-......-..
..........
..........
..........
..........
..........
-.........
..-.......
**........
**........
..........
..........
..-.......
....-.....
..-.....**
.......*.*
........*.
..........
..........
.....-....
..-.......

Generation = 153, Population = 34.
......**..
.....*..*.
......**..
..........
.**.......
*..*......
.*.*......
..*.......
..........
..........
..........
.**.......
.*.*......
..*.......
..........
..........
..........
..........
..........
..........
**........
*.........
*.*.......
.**.......
........-.
-.........
-......-..
..........
..........
..........
..........
..........
-.........
..-.......
**........
**........
..........
..........
..-.......
....-.....
..-.....**
.......*.*
........*.
..........
..........
.....-....
..-.......

Generation = 170, Population = 34.
......**..
.....*..*.
......**..
..........
.**.......
*..*......
.*.*......
..*.......
..........
..........
..........
.**.......
.*.*......
..*.......
..........
..........
..........
..........
..........
..........
**........
*.........
*.*.......
.**.......
........-.
-.........
-......-..
..........
..........
..........
..........
..........
-.........
..-.......
**........
**........
..........
..........
..-.......
....-.....
..-.....**
.......*.*
........*.
..........
..........
.....-....
..-.......

Generation = 187, Population = 34.
......**..
.....*..*.
......**..
..........
.**.......
*..*......
.*.*......
..*.......
..........
..........
..........
.**.......
.*.*......
..*.......
..........
..........
..........
..........
..........
..........
**........
*.........
*.*.......
.**.......
........-.
-.........
-......-..
..........
..........
..........
..........
..........
-.........
..-.......
**........
**........
..........
..........
..-.......
....-.....
..-.....**
.......*.*
........*.
..........
..........
.....-....
..-.......

Generation = 204, Population = 34.
......**..
.....*..*.
......**..
..........
.**.......
*..*......
.*.*......
..*.......
..........
..........
..........
.**.......
.*.*......
..*.......
..........
..........
..........
..........
..........
..........
**........
*.........
*.*.......
.**.......
........-.
-.........
-......-..
..........
..........
..........
..........
..........
-.........
..-.......
**........
**........
..........
..........
..-.......
....-.....
..-.....**
.......*.*
........*.
..........
..........
.....-....
..-.......

*** Life<Cell> 13x45 ***

Generation = 0, Population = 72.
0-----0--------------0---0----------------0--
-0--------------00---------------------------
--0-----------0-0-0----0---0--0-------------0
----0-------0------0--0------0------------00-
-----0---------00------------------0---------
0---00----------0---0------0-----------------
---0--------0-0-------00----0----0--------0--
--0-------------------0--------------------0-
-----------------0---0-0-----00-------------0
-------------------0-0----0-----------------0
-----0---0----------0-----0---------0--------
0-------0-------0---0--------0-0---0-0-------
--------------0---00----------0-------0------

Generation = 38, Population = 76.
........**..........-..-...............-.***.
.......****..........-...............**.*..*.
......***.**...........-.....-...........*.*.
.......**..**............*....-.......*...*..
........***.............*.*..........**......
........*....*..........*.*.*.........*.*..-.
.........*...............*.**.****.....*.....
..........*.........-..-......*............-.
...*.........................................
.1..**.....-......--..............-...***....
..*.*.............-...-..............1*...*..
..**...**..........-.................-**.*...
.......**...-...-...-...................***..

Generation = 76, Population = 44.
...................*...***...............*...
................**.**.*..*...............*...
................*..*..*...**.-...........*...
................*..*..**...*.................
........*.......*..*....*..*.................
.......*.........*.*....***....***.........-.
...**..***...................................
...**...............-......................-.
.............................................
.-.........-......--..............-..........
..................-...-......................
...................-.........................
............-...-...-........................

Generation = 114, Population = 42.
.........................................*...
......*.....*............................*...
.....**.....**........*..................*...
......*.....*........***.....................
....................**..*....................
......................*....................-.
.............................................
..................*........................-.
.................*.*...*.....................
.-.........-........*..***........-..........
................*..**.*...*..................
...............**.*.....***..................
............-...**......**...................

Generation = 152, Population = 39.
.......*................***..............*...
.......*..*............*..*..............*...
...........**...........**...............*...
..........*.*................................
...........*.**.**...........................
..........**.*.****........................-.
..............**...*.........................
..............*............................-.
..................*..........................
.-.........-..***.................-..........
...............**............................
.............................................
.............................................

Generation = 190, Population = 10.
........................***..............*...
.......................*..*..............*...
........................**...............*...
.............................................
.............................................
...........................................-.
.............................................
...........................................-.
.............................................
.-.........-......................-..........
.............................................
.............................................
.............................................

Generation = 228, Population = 10.
........................***..............*...
.......................*..*..............*...
........................**...............*...
.............................................
.............................................
...........................................-.
.............................................
...........................................-.
.............................................
.-.........-......................-..........
.............................................
.............................................
.............................................

Generation = 266, Population = 10.
........................***..............*...
.......................*..*..............*...
........................**...............*...
.............................................
.............................................
...........................................-.
.............................................
...........................................-.
.............................................
.-.........-......................-..........
.............................................
.............................................
.............................................

Generation = 304, Population = 10.
........................***..............*...
.......................*..*..............*...
........................**...............*...
.............................................
.............................................
...........................................-.
.............................................
...........................................-.
.............................................
.-.........-......................-..........
.............................................
.............................................
.............................................

*** Life<Cell> 20x50 ***

Generation = 0, Population = 94.
-00------0-0-----------0--0------------0---0------
-----------------------0---------------0-0-----0--
-------0-0---0------------------0-0----0---------0
----------0----0--0------0------------------------
--------------------0-------------------------0-0-
--0--0------------0--------------0---00----0------
----------------------0-0---------0---0----0------
-0--00---------0----0-----------0-----0-----------
----------0----------0------------0--00--0--------
------------------------------------------0-------
----------------0----0------------0------0--------
--------------------------------0-00--------------
-----------------------------0------0--0----------
--------------0------0-------------------------0--
---0------0---------0----0---0----------0---------
0---0---0-----------0------------0---------------0
---0-------0-------0--------------00--------------
------------------0-----------------------0--0--0-
----0--0---------------0----------0---------------
----0--0---------0-----0--------------------------

Generation = 56, Population = 115.
..................-...**...*.**...**..............
..........-..........***..**......**..............
....................**....*.....*.........**......
...................***.....*....*.......**..*.....
..*.................**....*.....*............*....
.*...................***..**................*.....
..*...................**...*.**.........****......
.......................*..........................
........**........................................
........**......***...............................
..................*...*...........................
...........**..*.**..*.**........................-
..........**....*...*...**........................
-.........******...*.**...........................
..........*...****.....**........................-
............*....*..*...***................**.....
..........*...............**...............**.....
...........**1....**.......**.....................
.............1.........*......................-...
............-..-.......*...*...........-..........

Generation = 112, Population = 54.
..................................................
..........-.......................................
..................................................
......................................*...........
.....................................***..........
....................................*....*........
....................................*....*........
.............**..........**...........**.*........
...........*.**.*.......*..*......................
...........*.**..*......*...**....***.............
...............***.......*...*....***.............
...............*.............*...................-
............*.*............**.....................
-..........*..*...................................
............***..................................-
...........................................**.....
...........................................**.....
..................................................
..............................................-...
...............-.......................-..........

Generation = 168, Population = 53.
..................................................
..........-.......................................
....................................**............
....................................*.*.....**....
.....................................*......**....
..................*...............................
.................*.*..............................
.................*.**...................**........
...................**...................**........
..................*.......**......................
.............*............**......................
.............*...................................-
.................*.**.*.*.........................
-................*.....***........................
...................**....*.......................-
.......................*.*.................**.....
..*.....................*..................**.....
.*.*..............................................
.*.*..........................................-...
..*....................................-..........

Generation = 224, Population = 56.
..................................................
..........-.......................................
....................................**............
....................................*.*.....**....
.....................................*......**....
..................................................
..................................................
........................................**........
..............................**........**........
.............................**...................
...................*..........***.................
....................*...........*................-
................*.................................
-..................*.**...........................
..............**.***..*..........................-
.............*...*.*.......................**.....
..*...........**...........................**.....
.*.*..........**.......*..........................
.*.*.............*....*.......................-...
..*................***.................-..........

Generation = 280, Population = 39.
..................................................
..........-.......................................
..............................*.....**............
............................*..*....*.*.....**....
............................*..*.....*......**....
.............................*....................
..................................................
........................................**........
.............................**.........**........
.............................**...................
..................................................
.................................................-
..................................................
-.................................................
.................................................-
...............*...........................**.....
..*...........*.*..........................**.....
.*.*..........*.*.................................
.*.*...........*..............................-...
..*....................................-..........

*** Life<Cell> 46x1 ***

Generation = 0, Population = 43.
0
0
0
0
0
0
0
0
0
0
-
0
0
0
0
-
0
0
0
0
0
0
0
0
0
0
-
0
0
0
0
0
0
0
0
0
0
0
0
0
0
0
0
0
0
0

Generation = 68, Population = 3.
1
-
-
-
.
.
-
-
-
.
.
.
.
.
.
.
.
-
-
-
.
.
0
-
0
-
-
.
-
.
.
.
.
-
.
.
.
-
.
.
-
.
-
.
.
.

Generation = 136, Population = 4.
1
-
1
-
.
.
-
-
-
.
.
.
.
.
.
.
.
-
-
-
.
.
0
-
0
-
-
.
-
.
.
.
.
-
.
.
.
-
.
.
-
.
-
.
.
.
