*** Life<ConwayCell> 5x5 ***

Generation = 0, Population = 8.
...**
.....
...*.
*.**.
.**..

Generation = 2, Population = 8.
.....
..***
..*..
.*..*
..**.

Generation = 4, Population = 7.
..**.
.*..*
.*...
.*...
..*..

Generation = 6, Population = 8.
..**.
*..*.
*..*.
*.*..
.....

Generation = 8, Population = 10.
..***
.*..*
*..**
.**..
.....

Generation = 10, Population = 11.
..**.
.*...
*..**
.****
..*..

*** Life<ConwayCell> 3x7 ***

Generation = 0, Population = 4.
......*
.......
*..**..

Generation = 2, Population = 0.
.......
.......
.......

Generation = 4, Population = 0.
.......
.......
.......

Generation = 6, Population = 0.
.......
.......
.......

Generation = 8, Population = 0.
.......
.......
.......

Generation = 10, Population = 0.
.......
.......
.......

*** Life<ConwayCell> 4x6 ***

Generation = 0, Population = 15.
***.*.
*.*.*.
****.*
..***.

Generation = 3, Population = 4.
......
....**
....**
......

Generation = 6, Population = 4.
......
....**
....**
......

Generation = 9, Population = 4.
......
....**
....**
......

Generation = 12, Population = 4.
......
....**
....**
......

*** Life<ConwayCell> 7x4 ***

Generation = 0, Population = 27.
****
.***
****
****
****
****
****

Generation = 3, Population = 0.
....
....
....
....
....
....
....

Generation = 6, Population = 0.
....
....
....
....
....
....
....

Generation = 9, Population = 0.
....
....
....
....
....
....
....

*** Life<ConwayCell> 6x7 ***

Generation = 0, Population = 34.
*.**..*
****.**
******.
***.***
*.***.*
*******

Generation = 3, Population = 4.
....*.*
....*.*
.......
.......
.......
.......

Generation = 6, Population = 0.
.......
.......
.......
.......
.......
.......

Generation = 9, Population = 0.
.......
.......
.......
.......
.......
.......

Generation = 12, Population = 0.
.......
.......
.......
.......
.......
.......

Generation = 15, Population = 0.
.......
.......
.......
.......
.......
.......

Generation = 18, Population = 0.
.......
.......
.......
.......
.......
.......

*** Life<ConwayCell> 2x8 ***

Generation = 0, Population = 13.
.*******
*.*.****

Generation = 3, Population = 4.
.**.....
.**.....

Generation = 6, Population = 4.
.**.....
.**.....

Generation = 9, Population = 4.
.**.....
.**.....

Generation = 12, Population = 4.
.**.....
.**.....

Generation = 15, Population = 4.
.**.....
.**.....

Generation = 18, Population = 4.
.**.....
.**.....

*** Life<ConwayCell> 4x7 ***

Generation = 0, Population = 14.
*.*.*..
...*..*
*.*****
*.*...*

Generation = 2, Population = 3.
.......
...*.*.
......*
.......

Generation = 4, Population = 0.
.......
.......
.......
.......

Generation = 6, Population = 0.
.......
.......
.......
.......

Generation = 8, Population = 0.
.......
.......
.......
.......

Generation = 10, Population = 0.
.......
.......
.......
.......

Generation = 12, Population = 0.
.......
.......
.......
.......

*** Life<ConwayCell> 6x9 ***

Generation = 0, Population = 37.
*.**.****
*.****..*
***.**..*
*.*...***
..***.**.
*******.*

Generation = 4, Population = 8.
.......*.
.*....*.*
..*....*.
..*......
.*.......
.........

Generation = 8, Population = 8.
.......*.
......*.*
.**....*.
.**......
.........
.........

Generation = 12, Population = 8.
.......*.
......*.*
.**....*.
.**......
.........
.........

Generation = 16, Population = 8.
.......*.
......*.*
.**....*.
.**......
.........
.........

*** Life<ConwayCell> 1x7 ***

Generation = 0, Population = 5.
**.**.*

Generation = 1, Population = 0.
.......

Generation = 2, Population = 0.
.......

Generation = 3, Population = 0.
.......

Generation = 4, Population = 0.
.......

Generation = 5, Population = 0.
.......

Generation = 6, Population = 0.
.......

Generation = 7, Population = 0.
.......

Generation = 8, Population = 0.
.......

Generation = 9, Population = 0.
.......

Generation = 10, Population = 0.
.......

Generation = 11, Population = 0.
.......

Generation = 12, Population = 0.
.......

Generation = 13, Population = 0.
.......

Generation = 14, Population = 0.
.......

Generation = 15, Population = 0.
.......

Generation = 16, Population = 0.
.......

Generation = 17, Population = 0.
.......

Generation = 18, Population = 0.
.......

*** Life<ConwayCell> 4x9 ***

Generation = 0, Population = 9.
.....*..*
.*..*..*.
..*......
**...*...

Generation = 3, Population = 0.
.........
.........
.........
.........

Generation = 6, Population = 0.
.........
.........
.........
.........

Generation = 9, Population = 0.
.........
.........
.........
.........

Generation = 12, Population = 0.
.........
.........
.........
.........

Generation = 15, Population = 0.
.........
.........
.........
.........

*** Life<ConwayCell> 3x7 ***

Generation = 0, Population = 19.
.*****.
*******
*******

Generation = 4, Population = 0.
.......
.......
.......

Generation = 8, Population = 0.
.......
.......
.......

Generation = 12, Population = 0.
.......
.......
.......

*** Life<ConwayCell> 8x4 ***

Generation = 0, Population = 11.
...*
*...
...*
.*.*
*...
...*
..*.
***.

Generation = 2, Population = 11.
....
....
....
.***
....
..**
.***
.***

Generation = 4, Population = 4.
....
....
....
.**.
.*..
..*.
....
....

Generation = 6, Population = 4.
....
....
....
.**.
.**.
....
....
....

Generation = 8, Population = 4.
....
....
....
.**.
.**.
....
....
....

Generation = 10, Population = 4.
....
....
....
.**.
.**.
....
....
....

Generation = 12, Population = 4.
....
....
....
.**.
.**.
....
....
....

Generation = 14, Population = 4.
....
....
....
.**.
.**.
....
....
....

*** Life<ConwayCell> 3x1 ***

Generation = 0, Population = 3.
*
*
*

Generation = 4, Population = 0.
.
.
.

Generation = 8, Population = 0.
.
.
.

Generation = 12, Population = 0.
.
.
.

Generation = 16, Population = 0.
.
.
.

*** Life<ConwayCell> 7x9 ***

Generation = 0, Population = 39.
.**..***.
.*.******
****.**.*
***.*.*.*
.....**..
*.*****.*
**.*.*..*

Generation = 5, Population = 8.
.........
.........
.........
.*.*.....
.*..*....
*..*.....
**.......

Generation = 10, Population = 11.
.........
..*......
.*.*.....
.*..*....
.*..*....
.*..*....
.*.*.....

Generation = 15, Population = 16.
.........
.***.....
.***.*...
..*.*....
.*..*....
.*..**...
.*.*.....

*** Life<ConwayCell> 2x9 ***

Generation = 0, Population = 13.
***.***.*
*..*.****

Generation = 1, Population = 10.
*****...*
*.**....*

Generation = 2, Population = 4.
*...*....
*...*....

Generation = 3, Population = 0.
.........
.........

Generation = 4, Population = 0.
.........
.........

Generation = 5, Population = 0.
.........
.........

Generation = 6, Population = 0.
.........
.........

Generation = 7, Population = 0.
.........
.........

Generation = 8, Population = 0.
.........
.........

Generation = 9, Population = 0.
.........
.........

Generation = 10, Population = 0.
.........
.........

Generation = 11, Population = 0.
.........
.........

Generation = 12, Population = 0.
.........
.........

Generation = 13, Population = 0.
.........
.........

Generation = 14, Population = 0.
.........
.........

Generation = 15, Population = 0.
.........
.........

Generation = 16, Population = 0.
.........
.........

Generation = 17, Population = 0.
.........
.........

Generation = 18, Population = 0.
.........
.........

*** Life<ConwayCell> 5x7 ***

Generation = 0, Population = 29.
***.***
.**.***
*****.*
***..**
*******

Generation = 3, Population = 0.
.......
.......
.......
.......
.......

Generation = 6, Population = 0.
.......
.......
.......
.......
.......

Generation = 9, Population = 0.
.......
.......
.......
.......
.......

Generation = 12, Population = 0.
.......
.......
.......
.......
.......

Generation = 15, Population = 0.
.......
.......
.......
.......
.......

*** Life<ConwayCell> 8x7 ***

Generation = 0, Population = 20.
.**....
..*...*
.*****.
..*.**.
...****
*......
.......
**..*..

Generation = 1, Population = 13.
.**....
....**.
.*....*
.*.....
...*..*
....**.
**.....
.......

Generation = 2, Population = 9.
.......
.**..*.
.....*.
..*....
....**.
....**.
.......
.......

Generation = 3, Population = 9.
.......
.......
.**....
....**.
...***.
....**.
.......
.......

Generation = 4, Population = 6.
.......
.......
.......
..*..*.
...*..*
...*.*.
.......
.......

Generation = 5, Population = 5.
.......
.......
.......
.......
..**.**
....*..
.......
.......

Generation = 6, Population = 6.
.......
.......
.......
.......
...***.
...***.
.......
.......

Generation = 7, Population = 6.
.......
.......
.......
....*..
...*.*.
...*.*.
....*..
.......

Generation = 8, Population = 6.
.......
.......
.......
....*..
...*.*.
...*.*.
....*..
.......

Generation = 9, Population = 6.
.......
.......
.......
....*..
...*.*.
...*.*.
....*..
.......

Generation = 10, Population = 6.
.......
.......
.......
....*..
...*.*.
...*.*.
....*..
.......

Generation = 11, Population = 6.
.......
.......
.......
....*..
...*.*.
...*.*.
....*..
.......

Generation = 12, Population = 6.
.......
.......
.......
....*..
...*.*.
...*.*.
....*..
.......

Generation = 13, Population = 6.
.......
.......
.......
....*..
...*.*.
...*.*.
....*..
.......

Generation = 14, Population = 6.
.......
.......
.......
....*..
...*.*.
...*.*.
....*..
.......

Generation = 15, Population = 6.
.......
.......
.......
....*..
...*.*.
...*.*.
....*..
.......

Generation = 16, Population = 6.
.......
.......
.......
....*..
...*.*.
...*.*.
....*..
.......

Generation = 17, Population = 6.
.......
.......
.......
....*..
...*.*.
...*.*.
....*..
.......

Generation = 18, Population = 6.
.......
.......
.......
....*..
...*.*.
...*.*.
....*..
.......

Generation = 19, Population = 6.
.......
.......
.......
....*..
...*.*.
...*.*.
....*..
.......

*** Life<ConwayCell> 6x5 ***

Generation = 0, Population = 18.
****.
..***
*****
.....
****.
.*.*.

Generation = 5, Population = 7.
.....
.***.
.....
*...*
*..*.
.....

Generation = 10, Population = 6.
..*..
..*..
.*.*.
..*..
..*..
.....

*** Life<ConwayCell> 6x4 ***

Generation = 0, Population = 4.
*...
....
....
.*..
....
..**

Generation = 2, Population = 0.
....
....
....
....
....
....

Generation = 4, Population = 0.
....
....
....
....
....
....

Generation = 6, Population = 0.
....
....
....
....
....
....

Generation = 8, Population = 0.
....
....
....
....
....
....

Generation = 10, Population = 0.
....
....
....
....
....
....

Generation = 12, Population = 0.
....
....
....
....
....
....

*** Life<ConwayCell> 6x2 ***

Generation = 0, Population = 12.
**
**
**
**
**
**

Generation = 4, Population = 0.
..
..
..
..
..
..

Generation = 8, Population = 0.
..
..
..
..
..
..
